%YAML 1.1
%TAG !u! tag:unity3d.com,2011:
--- !u!114 &-3636507461402930120
MonoBehaviour:
  m_ObjectHideFlags: 0
  m_CorrespondingSourceObject: {fileID: 0}
  m_PrefabInstance: {fileID: 0}
  m_PrefabAsset: {fileID: 0}
  m_GameObject: {fileID: 0}
  m_Enabled: 1
  m_EditorHideFlags: 0
  m_Script: {fileID: 11500000, guid: 775ad4994fda946d1a5936c7e2dfc785, type: 3}
  m_Name: End
  m_EditorClassIdentifier: 
  particleIndices: 26000000
  m_Blueprint: {fileID: 11400000}
--- !u!114 &-2322816590386012270
MonoBehaviour:
  m_ObjectHideFlags: 0
  m_CorrespondingSourceObject: {fileID: 0}
  m_PrefabInstance: {fileID: 0}
  m_PrefabAsset: {fileID: 0}
  m_GameObject: {fileID: 0}
  m_Enabled: 1
  m_EditorHideFlags: 0
  m_Script: {fileID: 11500000, guid: 775ad4994fda946d1a5936c7e2dfc785, type: 3}
  m_Name: Middle
  m_EditorClassIdentifier: 
  particleIndices: 12000000
  m_Blueprint: {fileID: 11400000}
--- !u!114 &11400000
MonoBehaviour:
  m_ObjectHideFlags: 0
  m_CorrespondingSourceObject: {fileID: 0}
  m_PrefabInstance: {fileID: 0}
  m_PrefabAsset: {fileID: 0}
  m_GameObject: {fileID: 0}
  m_Enabled: 1
  m_EditorHideFlags: 0
  m_Script: {fileID: 11500000, guid: e028b099aa5d14e399bc3d87df5b7737, type: 3}
  m_Name: New Rod
  m_EditorClassIdentifier: 
  m_Empty: 0
  m_ActiveParticleCount: 39
  m_InitialActiveParticleCount: 39
  _bounds:
    m_Center: {x: 0.05719316, y: 0, z: 0}
    m_Extent: {x: 1.8651379, y: 0, z: 0}
  positions:
  - {x: -1.8079448, y: 0, z: 0}
  - {x: -1.7097667, y: 0, z: 0}
  - {x: -1.6100166, y: 0, z: 0}
  - {x: -1.5105994, y: 0, z: 0}
  - {x: -1.4108396, y: 0, z: 0}
  - {x: -1.3111846, y: 0, z: 0}
  - {x: -1.2116314, y: 0, z: 0}
  - {x: -1.1121058, y: 0, z: 0}
  - {x: -1.0125581, y: 0, z: 0}
  - {x: -0.91297555, y: 0, z: 0}
  - {x: -0.8133744, y: 0, z: 0}
  - {x: -0.71378314, y: 0, z: 0}
  - {x: -0.6142243, y: 0, z: 0}
  - {x: -0.5146979, y: 0, z: 0}
  - {x: -0.4151674, y: 0, z: 0}
  - {x: -0.31556126, y: 0, z: 0}
  - {x: -0.21582396, y: 0, z: 0}
  - {x: -0.1161415, y: 0, z: 0}
  - {x: -0.017801657, y: 0, z: 0}
  - {x: 0.078014836, y: 0, z: 0}
  - {x: 0.17507496, y: 0, z: 0}
  - {x: 0.2722586, y: 0, z: 0}
  - {x: 0.3694423, y: 0, z: 0}
  - {x: 0.46666303, y: 0, z: 0}
  - {x: 0.5639271, y: 0, z: 0}
  - {x: 0.6611804, y: 0, z: 0}
  - {x: 0.7581523, y: 0, z: 0}
  - {x: 0.8551977, y: 0, z: 0}
  - {x: 0.95235837, y: 0, z: 0}
  - {x: 1.0494959, y: 0, z: 0}
  - {x: 1.1464856, y: 0, z: 0}
  - {x: 1.2433143, y: 0, z: 0}
  - {x: 1.340606, y: 0, z: 0}
  - {x: 1.4378736, y: 0, z: 0}
  - {x: 1.5350631, y: 0, z: 0}
  - {x: 1.6320689, y: 0, z: 0}
  - {x: 1.7284032, y: 0, z: 0}
  - {x: 1.826997, y: 0, z: 0}
  - {x: 1.9223311, y: 0, z: 0}
  restPositions:
  - {x: -1.8079448, y: 0, z: 0, w: 1}
  - {x: -1.7097667, y: 0, z: 0, w: 1}
  - {x: -1.6100166, y: 0, z: 0, w: 1}
  - {x: -1.5105994, y: 0, z: 0, w: 1}
  - {x: -1.4108396, y: 0, z: 0, w: 1}
  - {x: -1.3111846, y: 0, z: 0, w: 1}
  - {x: -1.2116314, y: 0, z: 0, w: 1}
  - {x: -1.1121058, y: 0, z: 0, w: 1}
  - {x: -1.0125581, y: 0, z: 0, w: 1}
  - {x: -0.91297555, y: 0, z: 0, w: 1}
  - {x: -0.8133744, y: 0, z: 0, w: 1}
  - {x: -0.71378314, y: 0, z: 0, w: 1}
  - {x: -0.6142243, y: 0, z: 0, w: 1}
  - {x: -0.5146979, y: 0, z: 0, w: 1}
  - {x: -0.4151674, y: 0, z: 0, w: 1}
  - {x: -0.31556126, y: 0, z: 0, w: 1}
  - {x: -0.21582396, y: 0, z: 0, w: 1}
  - {x: -0.1161415, y: 0, z: 0, w: 1}
  - {x: -0.017801657, y: 0, z: 0, w: 1}
  - {x: 0.078014836, y: 0, z: 0, w: 1}
  - {x: 0.17507496, y: 0, z: 0, w: 1}
  - {x: 0.2722586, y: 0, z: 0, w: 1}
  - {x: 0.3694423, y: 0, z: 0, w: 1}
  - {x: 0.46666303, y: 0, z: 0, w: 1}
  - {x: 0.5639271, y: 0, z: 0, w: 1}
  - {x: 0.6611804, y: 0, z: 0, w: 1}
  - {x: 0.7581523, y: 0, z: 0, w: 1}
  - {x: 0.8551977, y: 0, z: 0, w: 1}
  - {x: 0.95235837, y: 0, z: 0, w: 1}
  - {x: 1.0494959, y: 0, z: 0, w: 1}
  - {x: 1.1464856, y: 0, z: 0, w: 1}
  - {x: 1.2433143, y: 0, z: 0, w: 1}
  - {x: 1.340606, y: 0, z: 0, w: 1}
  - {x: 1.4378736, y: 0, z: 0, w: 1}
  - {x: 1.5350631, y: 0, z: 0, w: 1}
  - {x: 1.6320689, y: 0, z: 0, w: 1}
  - {x: 1.7284032, y: 0, z: 0, w: 1}
  - {x: 1.826997, y: 0, z: 0, w: 1}
  - {x: 1.9223311, y: 0, z: 0, w: 1}
  orientations:
  - {x: 0, y: 0.7071068, z: 0, w: 0.7071068}
  - {x: 0, y: 0.7071068, z: 0, w: 0.7071068}
  - {x: 0, y: 0.7071068, z: 0, w: 0.7071068}
  - {x: 0, y: 0.7071068, z: 0, w: 0.7071068}
  - {x: 0, y: 0.7071068, z: 0, w: 0.7071068}
  - {x: 0, y: 0.7071068, z: 0, w: 0.7071068}
  - {x: 0, y: 0.7071068, z: 0, w: 0.7071068}
  - {x: 0, y: 0.7071068, z: 0, w: 0.7071068}
  - {x: 0, y: 0.7071068, z: 0, w: 0.7071068}
  - {x: 0, y: 0.7071068, z: 0, w: 0.7071068}
  - {x: 0, y: 0.7071068, z: 0, w: 0.7071068}
  - {x: 0, y: 0.7071068, z: 0, w: 0.7071068}
  - {x: 0, y: 0.7071068, z: 0, w: 0.7071068}
  - {x: 0, y: 0.7071068, z: 0, w: 0.7071068}
  - {x: 0, y: 0.7071068, z: 0, w: 0.7071068}
  - {x: 0, y: 0.7071068, z: 0, w: 0.7071068}
  - {x: 0, y: 0.7071068, z: 0, w: 0.7071068}
  - {x: 0, y: 0.7071068, z: 0, w: 0.7071068}
  - {x: 0, y: 0.7071068, z: 0, w: 0.7071068}
  - {x: 0, y: 0.7071068, z: 0, w: 0.7071068}
  - {x: 0, y: 0.7071068, z: 0, w: 0.7071068}
  - {x: 0, y: 0.7071068, z: 0, w: 0.7071068}
  - {x: 0, y: 0.7071068, z: 0, w: 0.7071068}
  - {x: 0, y: 0.7071068, z: 0, w: 0.7071068}
  - {x: 0, y: 0.7071068, z: 0, w: 0.7071068}
  - {x: 0, y: 0.7071068, z: 0, w: 0.7071068}
  - {x: 0, y: 0.7071068, z: 0, w: 0.7071068}
  - {x: 0, y: 0.7071068, z: 0, w: 0.7071068}
  - {x: 0, y: 0.7071068, z: 0, w: 0.7071068}
  - {x: 0, y: 0.7071068, z: 0, w: 0.7071068}
  - {x: 0, y: 0.7071068, z: 0, w: 0.7071068}
  - {x: 0, y: 0.7071068, z: 0, w: 0.7071068}
  - {x: 0, y: 0.7071068, z: 0, w: 0.7071068}
  - {x: 0, y: 0.7071068, z: 0, w: 0.7071068}
  - {x: 0, y: 0.7071068, z: 0, w: 0.7071068}
  - {x: 0, y: 0.7071068, z: 0, w: 0.7071068}
  - {x: 0, y: 0.7071068, z: 0, w: 0.7071068}
  - {x: 0, y: 0.7071068, z: 0, w: 0.7071068}
  - {x: 0, y: 0.7071068, z: 0, w: 0.7071068}
  restOrientations:
  - {x: 0, y: 0.7071068, z: 0, w: 0.7071068}
  - {x: 0, y: 0.7071068, z: 0, w: 0.7071068}
  - {x: 0, y: 0.7071068, z: 0, w: 0.7071068}
  - {x: 0, y: 0.7071068, z: 0, w: 0.7071068}
  - {x: 0, y: 0.7071068, z: 0, w: 0.7071068}
  - {x: 0, y: 0.7071068, z: 0, w: 0.7071068}
  - {x: 0, y: 0.7071068, z: 0, w: 0.7071068}
  - {x: 0, y: 0.7071068, z: 0, w: 0.7071068}
  - {x: 0, y: 0.7071068, z: 0, w: 0.7071068}
  - {x: 0, y: 0.7071068, z: 0, w: 0.7071068}
  - {x: 0, y: 0.7071068, z: 0, w: 0.7071068}
  - {x: 0, y: 0.7071068, z: 0, w: 0.7071068}
  - {x: 0, y: 0.7071068, z: 0, w: 0.7071068}
  - {x: 0, y: 0.7071068, z: 0, w: 0.7071068}
  - {x: 0, y: 0.7071068, z: 0, w: 0.7071068}
  - {x: 0, y: 0.7071068, z: 0, w: 0.7071068}
  - {x: 0, y: 0.7071068, z: 0, w: 0.7071068}
  - {x: 0, y: 0.7071068, z: 0, w: 0.7071068}
  - {x: 0, y: 0.7071068, z: 0, w: 0.7071068}
  - {x: 0, y: 0.7071068, z: 0, w: 0.7071068}
  - {x: 0, y: 0.7071068, z: 0, w: 0.7071068}
  - {x: 0, y: 0.7071068, z: 0, w: 0.7071068}
  - {x: 0, y: 0.7071068, z: 0, w: 0.7071068}
  - {x: 0, y: 0.7071068, z: 0, w: 0.7071068}
  - {x: 0, y: 0.7071068, z: 0, w: 0.7071068}
  - {x: 0, y: 0.7071068, z: 0, w: 0.7071068}
  - {x: 0, y: 0.7071068, z: 0, w: 0.7071068}
  - {x: 0, y: 0.7071068, z: 0, w: 0.7071068}
  - {x: 0, y: 0.7071068, z: 0, w: 0.7071068}
  - {x: 0, y: 0.7071068, z: 0, w: 0.7071068}
  - {x: 0, y: 0.7071068, z: 0, w: 0.7071068}
  - {x: 0, y: 0.7071068, z: 0, w: 0.7071068}
  - {x: 0, y: 0.7071068, z: 0, w: 0.7071068}
  - {x: 0, y: 0.7071068, z: 0, w: 0.7071068}
  - {x: 0, y: 0.7071068, z: 0, w: 0.7071068}
  - {x: 0, y: 0.7071068, z: 0, w: 0.7071068}
  - {x: 0, y: 0.7071068, z: 0, w: 0.7071068}
  - {x: 0, y: 0.7071068, z: 0, w: 0.7071068}
  - {x: 0, y: 0.7071068, z: 0, w: 0.7071068}
  velocities:
  - {x: 0, y: 0, z: 0}
  - {x: 0, y: 0, z: 0}
  - {x: 0, y: 0, z: 0}
  - {x: 0, y: 0, z: 0}
  - {x: 0, y: 0, z: 0}
  - {x: 0, y: 0, z: 0}
  - {x: 0, y: 0, z: 0}
  - {x: 0, y: 0, z: 0}
  - {x: 0, y: 0, z: 0}
  - {x: 0, y: 0, z: 0}
  - {x: 0, y: 0, z: 0}
  - {x: 0, y: 0, z: 0}
  - {x: 0, y: 0, z: 0}
  - {x: 0, y: 0, z: 0}
  - {x: 0, y: 0, z: 0}
  - {x: 0, y: 0, z: 0}
  - {x: 0, y: 0, z: 0}
  - {x: 0, y: 0, z: 0}
  - {x: 0, y: 0, z: 0}
  - {x: 0, y: 0, z: 0}
  - {x: 0, y: 0, z: 0}
  - {x: 0, y: 0, z: 0}
  - {x: 0, y: 0, z: 0}
  - {x: 0, y: 0, z: 0}
  - {x: 0, y: 0, z: 0}
  - {x: 0, y: 0, z: 0}
  - {x: 0, y: 0, z: 0}
  - {x: 0, y: 0, z: 0}
  - {x: 0, y: 0, z: 0}
  - {x: 0, y: 0, z: 0}
  - {x: 0, y: 0, z: 0}
  - {x: 0, y: 0, z: 0}
  - {x: 0, y: 0, z: 0}
  - {x: 0, y: 0, z: 0}
  - {x: 0, y: 0, z: 0}
  - {x: 0, y: 0, z: 0}
  - {x: 0, y: 0, z: 0}
  - {x: 0, y: 0, z: 0}
  - {x: 0, y: 0, z: 0}
  angularVelocities:
  - {x: 0, y: 0, z: 0}
  - {x: 0, y: 0, z: 0}
  - {x: 0, y: 0, z: 0}
  - {x: 0, y: 0, z: 0}
  - {x: 0, y: 0, z: 0}
  - {x: 0, y: 0, z: 0}
  - {x: 0, y: 0, z: 0}
  - {x: 0, y: 0, z: 0}
  - {x: 0, y: 0, z: 0}
  - {x: 0, y: 0, z: 0}
  - {x: 0, y: 0, z: 0}
  - {x: 0, y: 0, z: 0}
  - {x: 0, y: 0, z: 0}
  - {x: 0, y: 0, z: 0}
  - {x: 0, y: 0, z: 0}
  - {x: 0, y: 0, z: 0}
  - {x: 0, y: 0, z: 0}
  - {x: 0, y: 0, z: 0}
  - {x: 0, y: 0, z: 0}
  - {x: 0, y: 0, z: 0}
  - {x: 0, y: 0, z: 0}
  - {x: 0, y: 0, z: 0}
  - {x: 0, y: 0, z: 0}
  - {x: 0, y: 0, z: 0}
  - {x: 0, y: 0, z: 0}
  - {x: 0, y: 0, z: 0}
  - {x: 0, y: 0, z: 0}
  - {x: 0, y: 0, z: 0}
  - {x: 0, y: 0, z: 0}
  - {x: 0, y: 0, z: 0}
  - {x: 0, y: 0, z: 0}
  - {x: 0, y: 0, z: 0}
  - {x: 0, y: 0, z: 0}
  - {x: 0, y: 0, z: 0}
  - {x: 0, y: 0, z: 0}
  - {x: 0, y: 0, z: 0}
  - {x: 0, y: 0, z: 0}
  - {x: 0, y: 0, z: 0}
  - {x: 0, y: 0, z: 0}
  invMasses:
  - 14.285714
  - 14.015007
  - 13.654852
  - 13.294738
  - 12.945349
  - 12.612494
  - 12.297543
  - 12.000566
  - 11.721309
  - 11.459498
  - 11.214947
  - 10.98761
  - 10.777655
  - 10.585575
  - 10.412416
  - 10.260239
  - 10.133135
  - 10.039718
  - 10
  - 10
  - 10
  - 10
  - 10
  - 10
  - 10
  - 10
  - 10
  - 10
  - 10
  - 10
  - 10
  - 10
  - 10
  - 10
  - 10
  - 10
  - 10
  - 10
  - 10
  invRotationalMasses:
  - 100
  - 100
  - 99.99999
  - 100
  - 100
  - 100
  - 100.000015
  - 100.000015
  - 100
  - 100
  - 100
  - 100
  - 100
  - 100
  - 100
  - 100
  - 100
  - 100
  - 100
  - 100
  - 100
  - 100
  - 100
  - 100
  - 100
  - 100
  - 100
  - 100
  - 100
  - 100
  - 100
  - 100
  - 100
  - 100
  - 100
  - 100
  - 100
  - 100
  - 100
  filters: 0200ffff0200ffff0200ffff0200ffff0200ffff0200ffff0200ffff0200ffff0200ffff0200ffff0200ffff0200ffff0200ffff0200ffff0200ffff0200ffff0200ffff0200ffff0200ffff0200ffff0200ffff0200ffff0200ffff0200ffff0200ffff0200ffff0200ffff0200ffff0200ffff0200ffff0200ffff0200ffff0200ffff0200ffff0200ffff0200ffff0200ffff0200ffff0200ffff
  principalRadii:
  - {x: 0.1, y: 0.1, z: 0.1}
  - {x: 0.1, y: 0.1, z: 0.1}
  - {x: 0.10000002, y: 0.10000002, z: 0.10000002}
  - {x: 0.1, y: 0.1, z: 0.1}
  - {x: 0.1, y: 0.1, z: 0.1}
  - {x: 0.1, y: 0.1, z: 0.1}
  - {x: 0.099999994, y: 0.099999994, z: 0.099999994}
  - {x: 0.099999994, y: 0.099999994, z: 0.099999994}
  - {x: 0.1, y: 0.1, z: 0.1}
  - {x: 0.1, y: 0.1, z: 0.1}
  - {x: 0.1, y: 0.1, z: 0.1}
  - {x: 0.1, y: 0.1, z: 0.1}
  - {x: 0.1, y: 0.1, z: 0.1}
  - {x: 0.1, y: 0.1, z: 0.1}
  - {x: 0.1, y: 0.1, z: 0.1}
  - {x: 0.1, y: 0.1, z: 0.1}
  - {x: 0.1, y: 0.1, z: 0.1}
  - {x: 0.1, y: 0.1, z: 0.1}
  - {x: 0.1, y: 0.1, z: 0.1}
  - {x: 0.1, y: 0.1, z: 0.1}
  - {x: 0.1, y: 0.1, z: 0.1}
  - {x: 0.1, y: 0.1, z: 0.1}
  - {x: 0.1, y: 0.1, z: 0.1}
  - {x: 0.1, y: 0.1, z: 0.1}
  - {x: 0.1, y: 0.1, z: 0.1}
  - {x: 0.1, y: 0.1, z: 0.1}
  - {x: 0.1, y: 0.1, z: 0.1}
  - {x: 0.1, y: 0.1, z: 0.1}
  - {x: 0.1, y: 0.1, z: 0.1}
  - {x: 0.1, y: 0.1, z: 0.1}
  - {x: 0.1, y: 0.1, z: 0.1}
  - {x: 0.1, y: 0.1, z: 0.1}
  - {x: 0.1, y: 0.1, z: 0.1}
  - {x: 0.1, y: 0.1, z: 0.1}
  - {x: 0.1, y: 0.1, z: 0.1}
  - {x: 0.1, y: 0.1, z: 0.1}
  - {x: 0.1, y: 0.1, z: 0.1}
  - {x: 0.1, y: 0.1, z: 0.1}
  - {x: 0.1, y: 0.1, z: 0.1}
  colors:
  - {r: 1, g: 1, b: 1, a: 1}
  - {r: 1, g: 1, b: 1, a: 1}
  - {r: 1.0000001, g: 1.0000001, b: 1.0000001, a: 1.0000001}
  - {r: 1, g: 1, b: 1, a: 1}
  - {r: 1, g: 1, b: 1, a: 1}
  - {r: 1, g: 1, b: 1, a: 1}
  - {r: 0.99999994, g: 0.99999994, b: 0.99999994, a: 0.99999994}
  - {r: 0.99999994, g: 0.99999994, b: 0.99999994, a: 0.99999994}
  - {r: 1, g: 1, b: 1, a: 1}
  - {r: 1, g: 1, b: 1, a: 1}
  - {r: 1, g: 1, b: 1, a: 1}
  - {r: 1, g: 1, b: 1, a: 1}
  - {r: 1, g: 1, b: 1, a: 1}
  - {r: 1, g: 1, b: 1, a: 1}
  - {r: 1, g: 1, b: 1, a: 1}
  - {r: 1, g: 1, b: 1, a: 1}
  - {r: 1, g: 1, b: 1, a: 1}
  - {r: 1, g: 1, b: 1, a: 1}
  - {r: 1, g: 1, b: 1, a: 1}
  - {r: 1, g: 1, b: 1, a: 1}
  - {r: 1, g: 1, b: 1, a: 1}
  - {r: 1, g: 1, b: 1, a: 1}
  - {r: 1, g: 1, b: 1, a: 1}
  - {r: 1, g: 1, b: 1, a: 1}
  - {r: 1, g: 1, b: 1, a: 1}
  - {r: 1, g: 1, b: 1, a: 1}
  - {r: 1, g: 1, b: 1, a: 1}
  - {r: 1, g: 1, b: 1, a: 1}
  - {r: 1, g: 1, b: 1, a: 1}
  - {r: 1, g: 1, b: 1, a: 1}
  - {r: 1, g: 1, b: 1, a: 1}
  - {r: 1, g: 1, b: 1, a: 1}
  - {r: 1, g: 1, b: 1, a: 1}
  - {r: 1, g: 1, b: 1, a: 1}
  - {r: 1, g: 1, b: 1, a: 1}
  - {r: 1, g: 1, b: 1, a: 1}
  - {r: 1, g: 1, b: 1, a: 1}
  - {r: 1, g: 1, b: 1, a: 1}
  - {r: 1, g: 1, b: 1, a: 1}
  points: 
  edges: 000000000100000001000000020000000200000003000000030000000400000004000000050000000500000006000000060000000700000007000000080000000800000009000000090000000a0000000a0000000b0000000b0000000c0000000c0000000d0000000d0000000e0000000e0000000f0000000f00000010000000100000001100000011000000120000001200000013000000130000001400000014000000150000001500000016000000160000001700000017000000180000001800000019000000190000001a0000001a0000001b0000001b0000001c0000001c0000001d0000001d0000001e0000001e0000001f0000001f00000020000000200000002100000021000000220000002200000023000000230000002400000024000000250000002500000026000000
  triangles: 
  distanceConstraintsData:
    batches: []
  bendConstraintsData:
    batches: []
  skinConstraintsData:
    batches: []
  tetherConstraintsData:
    batches: []
  stretchShearConstraintsData:
    batches:
    - m_IDs: 000000000100000002000000030000000400000005000000060000000700000008000000090000000a0000000b0000000c0000000d0000000e0000000f000000100000001100000012000000
      m_IDToIndex: 000000000100000002000000030000000400000005000000060000000700000008000000090000000a0000000b0000000c0000000d0000000e0000000f000000100000001100000012000000
      m_ConstraintCount: 19
      m_ActiveConstraintCount: 19
      m_InitialActiveConstraintCount: 19
      particleIndices:
        serializedContents: 000000000100000002000000030000000400000005000000060000000700000008000000090000000a0000000b0000000c0000000d0000000e0000000f000000100000001100000012000000130000001400000015000000160000001700000018000000190000001a0000001b0000001c0000001d0000001e0000001f000000200000002100000022000000230000002400000025000000
        m_AlignBytes: 16
      lambdas:
        serializedContents: []
        m_AlignBytes: 16
      orientationIndices:
        serializedContents: 00000000020000000400000006000000080000000a0000000c0000000e00000010000000120000001400000016000000180000001a0000001c0000001e000000200000002200000024000000
        m_AlignBytes: 16
      restLengths:
        serializedContents:
        - 0.09817803
        - 0.09941721
        - 0.09965491
        - 0.09952557
        - 0.09958255
        - 0.099591255
        - 0.099526405
        - 0.09960613
        - 0.099682465
        - 0.09581649
        - 0.097183645
        - 0.09722072
        - 0.09725326
        - 0.09704542
        - 0.09713757
        - 0.0968287
        - 0.09726763
        - 0.097005725
        - 0.09859383
        m_AlignBytes: 16
      restOrientations:
        serializedContents:
        - {x: 0, y: 0, z: 0, w: 1}
        - {x: 0, y: 0, z: 0, w: 1}
        - {x: 0, y: 0, z: 0, w: 1}
        - {x: 0, y: 0, z: 0, w: 1}
        - {x: 0, y: 0, z: 0, w: 1}
        - {x: 0, y: 0, z: 0, w: 1}
        - {x: 0, y: 0, z: 0, w: 1}
        - {x: 0, y: 0, z: 0, w: 1}
        - {x: 0, y: 0, z: 0, w: 1}
        - {x: 0, y: 0, z: 0, w: 1}
        - {x: 0, y: 0, z: 0, w: 1}
        - {x: 0, y: 0, z: 0, w: 1}
        - {x: 0, y: 0, z: 0, w: 1}
        - {x: 0, y: 0, z: 0, w: 1}
        - {x: 0, y: 0, z: 0, w: 1}
        - {x: 0, y: 0, z: 0, w: 1}
        - {x: 0, y: 0, z: 0, w: 1}
        - {x: 0, y: 0, z: 0, w: 1}
        - {x: 0, y: 0, z: 0, w: 1}
        m_AlignBytes: 16
      stiffnesses:
        serializedContents:
        - {x: 0, y: 0, z: 0}
        - {x: 0, y: 0, z: 0}
        - {x: 0, y: 0, z: 0}
        - {x: 0, y: 0, z: 0}
        - {x: 0, y: 0, z: 0}
        - {x: 0, y: 0, z: 0}
        - {x: 0, y: 0, z: 0}
        - {x: 0, y: 0, z: 0}
        - {x: 0, y: 0, z: 0}
        - {x: 0, y: 0, z: 0}
        - {x: 0, y: 0, z: 0}
        - {x: 0, y: 0, z: 0}
        - {x: 0, y: 0, z: 0}
        - {x: 0, y: 0, z: 0}
        - {x: 0, y: 0, z: 0}
        - {x: 0, y: 0, z: 0}
        - {x: 0, y: 0, z: 0}
        - {x: 0, y: 0, z: 0}
        - {x: 0, y: 0, z: 0}
        m_AlignBytes: 16
    - m_IDs: 000000000100000002000000030000000400000005000000060000000700000008000000090000000a0000000b0000000c0000000d0000000e0000000f000000100000001100000012000000
      m_IDToIndex: 000000000100000002000000030000000400000005000000060000000700000008000000090000000a0000000b0000000c0000000d0000000e0000000f000000100000001100000012000000
      m_ConstraintCount: 19
      m_ActiveConstraintCount: 19
      m_InitialActiveConstraintCount: 19
      particleIndices:
        serializedContents: 0100000002000000030000000400000005000000060000000700000008000000090000000a0000000b0000000c0000000d0000000e0000000f000000100000001100000012000000130000001400000015000000160000001700000018000000190000001a0000001b0000001c0000001d0000001e0000001f00000020000000210000002200000023000000240000002500000026000000
        m_AlignBytes: 16
      lambdas:
        serializedContents: []
        m_AlignBytes: 16
      orientationIndices:
        serializedContents: 01000000030000000500000007000000090000000b0000000d0000000f00000011000000130000001500000017000000190000001b0000001d0000001f000000210000002300000025000000
        m_AlignBytes: 16
      restLengths:
        serializedContents:
        - 0.09975016
        - 0.09975982
        - 0.09955323
        - 0.099547744
        - 0.09960115
        - 0.09955883
        - 0.09953052
        - 0.0997373
        - 0.09833984
        - 0.09706013
        - 0.097183704
        - 0.09726408
        - 0.09697193
        - 0.09716064
        - 0.09698963
        - 0.09729171
        - 0.097189546
        - 0.09633434
        - 0.09533405
        m_AlignBytes: 16
      restOrientations:
        serializedContents:
        - {x: 0, y: 0, z: 0, w: 1}
        - {x: 0, y: 0, z: 0, w: 1}
        - {x: 0, y: 0, z: 0, w: 1}
        - {x: 0, y: 0, z: 0, w: 1}
        - {x: 0, y: 0, z: 0, w: 1}
        - {x: 0, y: 0, z: 0, w: 1}
        - {x: 0, y: 0, z: 0, w: 1}
        - {x: 0, y: 0, z: 0, w: 1}
        - {x: 0, y: 0, z: 0, w: 1}
        - {x: 0, y: 0, z: 0, w: 1}
        - {x: 0, y: 0, z: 0, w: 1}
        - {x: 0, y: 0, z: 0, w: 1}
        - {x: 0, y: 0, z: 0, w: 1}
        - {x: 0, y: 0, z: 0, w: 1}
        - {x: 0, y: 0, z: 0, w: 1}
        - {x: 0, y: 0, z: 0, w: 1}
        - {x: 0, y: 0, z: 0, w: 1}
        - {x: 0, y: 0, z: 0, w: 1}
        - {x: 0, y: 0, z: 0, w: 1}
        m_AlignBytes: 16
      stiffnesses:
        serializedContents:
        - {x: 0, y: 0, z: 0}
        - {x: 0, y: 0, z: 0}
        - {x: 0, y: 0, z: 0}
        - {x: 0, y: 0, z: 0}
        - {x: 0, y: 0, z: 0}
        - {x: 0, y: 0, z: 0}
        - {x: 0, y: 0, z: 0}
        - {x: 0, y: 0, z: 0}
        - {x: 0, y: 0, z: 0}
        - {x: 0, y: 0, z: 0}
        - {x: 0, y: 0, z: 0}
        - {x: 0, y: 0, z: 0}
        - {x: 0, y: 0, z: 0}
        - {x: 0, y: 0, z: 0}
        - {x: 0, y: 0, z: 0}
        - {x: 0, y: 0, z: 0}
        - {x: 0, y: 0, z: 0}
        - {x: 0, y: 0, z: 0}
        - {x: 0, y: 0, z: 0}
        m_AlignBytes: 16
  bendTwistConstraintsData:
    batches:
    - m_IDs: 000000000100000002000000030000000400000005000000060000000700000008000000090000000a0000000b0000000c0000000d0000000e0000000f000000100000001100000012000000
      m_IDToIndex: 000000000100000002000000030000000400000005000000060000000700000008000000090000000a0000000b0000000c0000000d0000000e0000000f000000100000001100000012000000
      m_ConstraintCount: 19
      m_ActiveConstraintCount: 19
      m_InitialActiveConstraintCount: 19
      particleIndices:
        serializedContents: 000000000100000002000000030000000400000005000000060000000700000008000000090000000a0000000b0000000c0000000d0000000e0000000f000000100000001100000012000000130000001400000015000000160000001700000018000000190000001a0000001b0000001c0000001d0000001e0000001f000000200000002100000022000000230000002400000025000000
        m_AlignBytes: 16
      lambdas:
        serializedContents: []
        m_AlignBytes: 16
      restDarbouxVectors:
        serializedContents:
        - {x: 0, y: 0, z: 0, w: 1.0000001}
        - {x: 0, y: 0, z: 0, w: 1.0000001}
        - {x: 0, y: 0, z: 0, w: 1.0000001}
        - {x: 0, y: 0, z: 0, w: 1.0000001}
        - {x: 0, y: 0, z: 0, w: 1.0000001}
        - {x: 0, y: 0, z: 0, w: 1.0000001}
        - {x: 0, y: 0, z: 0, w: 1.0000001}
        - {x: 0, y: 0, z: 0, w: 1.0000001}
        - {x: 0, y: 0, z: 0, w: 1.0000001}
        - {x: 0, y: 0, z: 0, w: 1.0000001}
        - {x: 0, y: 0, z: 0, w: 1.0000001}
        - {x: 0, y: 0, z: 0, w: 1.0000001}
        - {x: 0, y: 0, z: 0, w: 1.0000001}
        - {x: 0, y: 0, z: 0, w: 1.0000001}
        - {x: 0, y: 0, z: 0, w: 1.0000001}
        - {x: 0, y: 0, z: 0, w: 1.0000001}
        - {x: 0, y: 0, z: 0, w: 1.0000001}
        - {x: 0, y: 0, z: 0, w: 1.0000001}
        - {x: 0, y: 0, z: 0, w: 1.0000001}
        m_AlignBytes: 16
      stiffnesses:
        serializedContents:
        - {x: 0, y: 0, z: 0}
        - {x: 0, y: 0, z: 0}
        - {x: 0, y: 0, z: 0}
        - {x: 0, y: 0, z: 0}
        - {x: 0, y: 0, z: 0}
        - {x: 0, y: 0, z: 0}
        - {x: 0, y: 0, z: 0}
        - {x: 0, y: 0, z: 0}
        - {x: 0, y: 0, z: 0}
        - {x: 0, y: 0, z: 0}
        - {x: 0, y: 0, z: 0}
        - {x: 0, y: 0, z: 0}
        - {x: 0, y: 0, z: 0}
        - {x: 0, y: 0, z: 0}
        - {x: 0, y: 0, z: 0}
        - {x: 0, y: 0, z: 0}
        - {x: 0, y: 0, z: 0}
        - {x: 0, y: 0, z: 0}
        - {x: 0, y: 0, z: 0}
        m_AlignBytes: 16
      plasticity:
        serializedContents:
        - {x: 0, y: 0}
        - {x: 0, y: 0}
        - {x: 0, y: 0}
        - {x: 0, y: 0}
        - {x: 0, y: 0}
        - {x: 0, y: 0}
        - {x: 0, y: 0}
        - {x: 0, y: 0}
        - {x: 0, y: 0}
        - {x: 0, y: 0}
        - {x: 0, y: 0}
        - {x: 0, y: 0}
        - {x: 0, y: 0}
        - {x: 0, y: 0}
        - {x: 0, y: 0}
        - {x: 0, y: 0}
        - {x: 0, y: 0}
        - {x: 0, y: 0}
        - {x: 0, y: 0}
        m_AlignBytes: 16
    - m_IDs: 000000000100000002000000030000000400000005000000060000000700000008000000090000000a0000000b0000000c0000000d0000000e0000000f000000100000001100000012000000
      m_IDToIndex: 000000000100000002000000030000000400000005000000060000000700000008000000090000000a0000000b0000000c0000000d0000000e0000000f000000100000001100000012000000
      m_ConstraintCount: 19
      m_ActiveConstraintCount: 19
      m_InitialActiveConstraintCount: 19
      particleIndices:
        serializedContents: 0100000002000000030000000400000005000000060000000700000008000000090000000a0000000b0000000c0000000d0000000e0000000f000000100000001100000012000000130000001400000015000000160000001700000018000000190000001a0000001b0000001c0000001d0000001e0000001f00000020000000210000002200000023000000240000002500000026000000
        m_AlignBytes: 16
      lambdas:
        serializedContents: []
        m_AlignBytes: 16
      restDarbouxVectors:
        serializedContents:
        - {x: 0, y: 0, z: 0, w: 1.0000001}
        - {x: 0, y: 0, z: 0, w: 1.0000001}
        - {x: 0, y: 0, z: 0, w: 1.0000001}
        - {x: 0, y: 0, z: 0, w: 1.0000001}
        - {x: 0, y: 0, z: 0, w: 1.0000001}
        - {x: 0, y: 0, z: 0, w: 1.0000001}
        - {x: 0, y: 0, z: 0, w: 1.0000001}
        - {x: 0, y: 0, z: 0, w: 1.0000001}
        - {x: 0, y: 0, z: 0, w: 1.0000001}
        - {x: 0, y: 0, z: 0, w: 1.0000001}
        - {x: 0, y: 0, z: 0, w: 1.0000001}
        - {x: 0, y: 0, z: 0, w: 1.0000001}
        - {x: 0, y: 0, z: 0, w: 1.0000001}
        - {x: 0, y: 0, z: 0, w: 1.0000001}
        - {x: 0, y: 0, z: 0, w: 1.0000001}
        - {x: 0, y: 0, z: 0, w: 1.0000001}
        - {x: 0, y: 0, z: 0, w: 1.0000001}
        - {x: 0, y: 0, z: 0, w: 1.0000001}
        - {x: 0, y: 0, z: 0, w: 1.0000001}
        m_AlignBytes: 16
      stiffnesses:
        serializedContents:
        - {x: 0, y: 0, z: 0}
        - {x: 0, y: 0, z: 0}
        - {x: 0, y: 0, z: 0}
        - {x: 0, y: 0, z: 0}
        - {x: 0, y: 0, z: 0}
        - {x: 0, y: 0, z: 0}
        - {x: 0, y: 0, z: 0}
        - {x: 0, y: 0, z: 0}
        - {x: 0, y: 0, z: 0}
        - {x: 0, y: 0, z: 0}
        - {x: 0, y: 0, z: 0}
        - {x: 0, y: 0, z: 0}
        - {x: 0, y: 0, z: 0}
        - {x: 0, y: 0, z: 0}
        - {x: 0, y: 0, z: 0}
        - {x: 0, y: 0, z: 0}
        - {x: 0, y: 0, z: 0}
        - {x: 0, y: 0, z: 0}
        - {x: 0, y: 0, z: 0}
        m_AlignBytes: 16
      plasticity:
        serializedContents:
        - {x: 0, y: 0}
        - {x: 0, y: 0}
        - {x: 0, y: 0}
        - {x: 0, y: 0}
        - {x: 0, y: 0}
        - {x: 0, y: 0}
        - {x: 0, y: 0}
        - {x: 0, y: 0}
        - {x: 0, y: 0}
        - {x: 0, y: 0}
        - {x: 0, y: 0}
        - {x: 0, y: 0}
        - {x: 0, y: 0}
        - {x: 0, y: 0}
        - {x: 0, y: 0}
        - {x: 0, y: 0}
        - {x: 0, y: 0}
        - {x: 0, y: 0}
        - {x: 0, y: 0}
        m_AlignBytes: 16
  shapeMatchingConstraintsData:
    batches: []
  aerodynamicConstraintsData:
    batches: []
  chainConstraintsData:
    batches:
    - m_IDs: 00000000
      m_IDToIndex: 00000000
      m_ConstraintCount: 1
      m_ActiveConstraintCount: 1
      m_InitialActiveConstraintCount: 1
      particleIndices:
        serializedContents: 000000000100000002000000030000000400000005000000060000000700000008000000090000000a0000000b0000000c0000000d0000000e0000000f000000100000001100000012000000130000001400000015000000160000001700000018000000190000001a0000001b0000001c0000001d0000001e0000001f00000020000000210000002200000023000000240000002500000026000000
        m_AlignBytes: 16
      lambdas:
        serializedContents: []
        m_AlignBytes: 16
      firstParticle:
        serializedContents: 00000000
        m_AlignBytes: 16
      numParticles:
        serializedContents: 27000000
        m_AlignBytes: 16
      lengths:
        serializedContents:
        - {x: 0.09816515, y: 0.09816515}
        m_AlignBytes: 16
  volumeConstraintsData:
    batches: []
  groups:
  - {fileID: 1380893866896557494}
  - {fileID: -2322816590386012270}
  - {fileID: -3636507461402930120}
  path:
    m_Names:
    - Start
    - Middle
    - End
    m_Points:
      data:
      - tangentMode: 2
        inTangent: {x: -0.25, y: 0, z: 0}
        position: {x: -1.8079448, y: 0, z: 0}
        outTangent: {x: 0.123304546, y: 0, z: 0}
      - tangentMode: 0
        inTangent: {x: -0.43150914, y: 0, z: 0}
        position: {x: -0.017801657, y: 0, z: 0}
        outTangent: {x: 0.4433759, y: 0, z: 0}
      - tangentMode: 0
        inTangent: {x: -0.12669545, y: 0, z: 0}
        position: {x: 1.9223311, y: 0, z: 0}
        outTangent: {x: 0.25, y: 0, z: 0}
    m_Normals:
      data:
      - {x: 0, y: 1, z: 0}
      - {x: 0, y: 1, z: 0}
      - {x: 0, y: 1, z: 0}
    m_Colors:
      data:
      - {r: 1, g: 1, b: 1, a: 1}
      - {r: 1, g: 1, b: 1, a: 1}
      - {r: 1, g: 1, b: 1, a: 1}
    m_Thickness:
      data:
      - 1
      - 1
      - 1
    m_Masses:
      data:
      - 0.07
      - 0.1
      - 0.1
    m_RotationalMasses:
      data:
      - 0.01
      - 0.01
      - 0.01
    m_Filters:
      data: 0200ffff0200ffff0200ffff
    m_Closed: 0
    m_ArcLengthTable:
    - 0
    - 0.024972865
    - 0.063834086
    - 0.11534244
    - 0.17825666
    - 0.25133553
    - 0.33333784
    - 0.42302233
    - 0.51914775
    - 0.6204729
    - 0.7257565
    - 0.83375746
    - 0.9432343
    - 1.052946
    - 1.1616511
    - 1.2681086
    - 1.3710772
    - 1.4693156
    - 1.5615827
    - 1.6466371
    - 1.7232376
    - 1.7901431
    - 1.8595523
    - 1.9401634
    - 2.0305705
    - 2.1293678
    - 2.2351494
    - 2.3465095
    - 2.4620419
    - 2.5803406
    - 2.7
    - 2.819614
    - 2.9377766
    - 3.053082
    - 3.1641243
    - 3.2694974
    - 3.3677955
    - 3.4576125
    - 3.5375426
    - 3.60618
    - 3.6621184
    - 3.7039523
    - 3.7302756
    m_TotalSplineLenght: 3.7302756
    OnPathChanged:
      m_PersistentCalls:
        m_Calls: []
    OnControlPointAdded:
      m_PersistentCalls:
        m_Calls: []
    OnControlPointRemoved:
      m_PersistentCalls:
        m_Calls: []
    OnControlPointRenamed:
      m_PersistentCalls:
        m_Calls: []
  thickness: 0.1
  resolution: 1
  m_InterParticleDistance: 0.09816515
  totalParticles: 39
  m_RestLength: 3.7302756
  restLengths:
  - 0.09817803
  - 0.09975016
  - 0.09941721
  - 0.09975982
  - 0.09965491
  - 0.09955323
  - 0.09952557
  - 0.099547744
  - 0.09958255
  - 0.09960115
  - 0.099591255
  - 0.09955883
  - 0.099526405
  - 0.09953052
  - 0.09960613
  - 0.0997373
  - 0.099682465
  - 0.09833984
  - 0.09581649
  - 0.09706013
  - 0.097183645
  - 0.097183704
  - 0.09722072
  - 0.09726408
  - 0.09725326
  - 0.09697193
  - 0.09704542
  - 0.09716064
  - 0.09713757
  - 0.09698963
  - 0.0968287
  - 0.09729171
  - 0.09726763
  - 0.097189546
  - 0.097005725
  - 0.09633434
  - 0.09859383
  - 0.09533405
  - 0
  keepInitialShape: 1
--- !u!114 &1380893866896557494
MonoBehaviour:
  m_ObjectHideFlags: 0
  m_CorrespondingSourceObject: {fileID: 0}
  m_PrefabInstance: {fileID: 0}
  m_PrefabAsset: {fileID: 0}
  m_GameObject: {fileID: 0}
  m_Enabled: 1
  m_EditorHideFlags: 0
  m_Script: {fileID: 11500000, guid: 775ad4994fda946d1a5936c7e2dfc785, type: 3}
  m_Name: Start
  m_EditorClassIdentifier: 
  particleIndices: 00000000
  m_Blueprint: {fileID: 11400000}
