%YAML 1.1
%TAG !u! tag:unity3d.com,2011:
--- !u!114 &-3542052719298180846
MonoBehaviour:
  m_ObjectHideFlags: 0
  m_CorrespondingSourceObject: {fileID: 0}
  m_PrefabInstance: {fileID: 0}
  m_PrefabAsset: {fileID: 0}
  m_GameObject: {fileID: 0}
  m_Enabled: 1
  m_EditorHideFlags: 0
  m_Script: {fileID: 11500000, guid: 775ad4994fda946d1a5936c7e2dfc785, type: 3}
  m_Name: Mid
  m_EditorClassIdentifier: 
  particleIndices: 07000000
  m_Blueprint: {fileID: 11400000}
--- !u!114 &11400000
MonoBehaviour:
  m_ObjectHideFlags: 0
  m_CorrespondingSourceObject: {fileID: 0}
  m_PrefabInstance: {fileID: 0}
  m_PrefabAsset: {fileID: 0}
  m_GameObject: {fileID: 0}
  m_Enabled: 1
  m_EditorHideFlags: 0
  m_Script: {fileID: 11500000, guid: 8f7e67b5626124d0db9886e6cd2aacff, type: 3}
  m_Name: NewCuttableRope 1
  m_EditorClassIdentifier: 
  m_Empty: 0
  m_ActiveParticleCount: 15
  m_InitialActiveParticleCount: 15
  _bounds:
    m_Center: {x: -0.48843932, y: 0.9533488, z: 0}
    m_Extent: {x: 1.8770657, y: 0.9533488, z: 0}
  positions:
  - {x: 1.3886263, y: 0, z: 0}
  - {x: 1.1385418, y: 0.2801355, z: 0}
  - {x: 0.88734376, y: 0.5591397, z: 0}
  - {x: 0.63384956, y: 0.838167, z: 0}
  - {x: 0.3788398, y: 1.1156075, z: 0}
  - {x: 0.12166057, y: 1.3905888, z: 0}
  - {x: -0.1405322, y: 1.6619339, z: 0}
  - {x: -0.420926, y: 1.9066976, z: 0}
  - {x: -0.71937937, y: 1.6623257, z: 0}
  - {x: -1.0008297, y: 1.3910675, z: 0}
  - {x: -1.2773979, y: 1.1160907, z: 0}
  - {x: -1.5519246, y: 0.83858883, z: 0}
  - {x: -1.8250182, y: 0.55945396, z: 0}
  - {x: -2.0957987, y: 0.28029978, z: 0}
  - {x: -2.365505, y: 0, z: 0}
  - {x: 0, y: 0, z: 0}
  - {x: 0, y: 0, z: 0}
  - {x: 0, y: 0, z: 0}
  - {x: 0, y: 0, z: 0}
  - {x: 0, y: 0, z: 0}
  - {x: 0, y: 0, z: 0}
  - {x: 0, y: 0, z: 0}
  - {x: 0, y: 0, z: 0}
  - {x: 0, y: 0, z: 0}
  - {x: 0, y: 0, z: 0}
  - {x: 0, y: 0, z: 0}
  - {x: 0, y: 0, z: 0}
  - {x: 0, y: 0, z: 0}
  - {x: 0, y: 0, z: 0}
  - {x: 0, y: 0, z: 0}
  - {x: 0, y: 0, z: 0}
  - {x: 0, y: 0, z: 0}
  - {x: 0, y: 0, z: 0}
  - {x: 0, y: 0, z: 0}
  - {x: 0, y: 0, z: 0}
  - {x: 0, y: 0, z: 0}
  - {x: 0, y: 0, z: 0}
  - {x: 0, y: 0, z: 0}
  - {x: 0, y: 0, z: 0}
  - {x: 0, y: 0, z: 0}
  - {x: 0, y: 0, z: 0}
  - {x: 0, y: 0, z: 0}
  - {x: 0, y: 0, z: 0}
  - {x: 0, y: 0, z: 0}
  - {x: 0, y: 0, z: 0}
  - {x: 0, y: 0, z: 0}
  - {x: 0, y: 0, z: 0}
  - {x: 0, y: 0, z: 0}
  - {x: 0, y: 0, z: 0}
  - {x: 0, y: 0, z: 0}
  - {x: 0, y: 0, z: 0}
  - {x: 0, y: 0, z: 0}
  - {x: 0, y: 0, z: 0}
  - {x: 0, y: 0, z: 0}
  - {x: 0, y: 0, z: 0}
  - {x: 0, y: 0, z: 0}
  - {x: 0, y: 0, z: 0}
  - {x: 0, y: 0, z: 0}
  - {x: 0, y: 0, z: 0}
  - {x: 0, y: 0, z: 0}
  - {x: 0, y: 0, z: 0}
  - {x: 0, y: 0, z: 0}
  - {x: 0, y: 0, z: 0}
  - {x: 0, y: 0, z: 0}
  - {x: 0, y: 0, z: 0}
  - {x: 0, y: 0, z: 0}
  - {x: 0, y: 0, z: 0}
  - {x: 0, y: 0, z: 0}
  - {x: 0, y: 0, z: 0}
  - {x: 0, y: 0, z: 0}
  - {x: 0, y: 0, z: 0}
  - {x: 0, y: 0, z: 0}
  - {x: 0, y: 0, z: 0}
  - {x: 0, y: 0, z: 0}
  - {x: 0, y: 0, z: 0}
  - {x: 0, y: 0, z: 0}
  - {x: 0, y: 0, z: 0}
  - {x: 0, y: 0, z: 0}
  - {x: 0, y: 0, z: 0}
  - {x: 0, y: 0, z: 0}
  - {x: 0, y: 0, z: 0}
  - {x: 0, y: 0, z: 0}
  - {x: 0, y: 0, z: 0}
  - {x: 0, y: 0, z: 0}
  - {x: 0, y: 0, z: 0}
  - {x: 0, y: 0, z: 0}
  - {x: 0, y: 0, z: 0}
  - {x: 0, y: 0, z: 0}
  - {x: 0, y: 0, z: 0}
  - {x: 0, y: 0, z: 0}
  - {x: 0, y: 0, z: 0}
  - {x: 0, y: 0, z: 0}
  - {x: 0, y: 0, z: 0}
  - {x: 0, y: 0, z: 0}
  - {x: 0, y: 0, z: 0}
  - {x: 0, y: 0, z: 0}
  - {x: 0, y: 0, z: 0}
  - {x: 0, y: 0, z: 0}
  - {x: 0, y: 0, z: 0}
  - {x: 0, y: 0, z: 0}
  - {x: 0, y: 0, z: 0}
  - {x: 0, y: 0, z: 0}
  - {x: 0, y: 0, z: 0}
  - {x: 0, y: 0, z: 0}
  - {x: 0, y: 0, z: 0}
  - {x: 0, y: 0, z: 0}
  - {x: 0, y: 0, z: 0}
  - {x: 0, y: 0, z: 0}
  - {x: 0, y: 0, z: 0}
  - {x: 0, y: 0, z: 0}
  - {x: 0, y: 0, z: 0}
  - {x: 0, y: 0, z: 0}
  - {x: 0, y: 0, z: 0}
  - {x: 0, y: 0, z: 0}
  - {x: 0, y: 0, z: 0}
  restPositions:
  - {x: 1.3886263, y: 0, z: 0, w: 1}
  - {x: 1.1385418, y: 0.2801355, z: 0, w: 1}
  - {x: 0.88734376, y: 0.5591397, z: 0, w: 1}
  - {x: 0.63384956, y: 0.838167, z: 0, w: 1}
  - {x: 0.3788398, y: 1.1156075, z: 0, w: 1}
  - {x: 0.12166057, y: 1.3905888, z: 0, w: 1}
  - {x: -0.1405322, y: 1.6619339, z: 0, w: 1}
  - {x: -0.420926, y: 1.9066976, z: 0, w: 1}
  - {x: -0.71937937, y: 1.6623257, z: 0, w: 1}
  - {x: -1.0008297, y: 1.3910675, z: 0, w: 1}
  - {x: -1.2773979, y: 1.1160907, z: 0, w: 1}
  - {x: -1.5519246, y: 0.83858883, z: 0, w: 1}
  - {x: -1.8250182, y: 0.55945396, z: 0, w: 1}
  - {x: -2.0957987, y: 0.28029978, z: 0, w: 1}
  - {x: -2.365505, y: 0, z: 0, w: 1}
  - {x: 0, y: 0, z: 0, w: 0}
  - {x: 0, y: 0, z: 0, w: 0}
  - {x: 0, y: 0, z: 0, w: 0}
  - {x: 0, y: 0, z: 0, w: 0}
  - {x: 0, y: 0, z: 0, w: 0}
  - {x: 0, y: 0, z: 0, w: 0}
  - {x: 0, y: 0, z: 0, w: 0}
  - {x: 0, y: 0, z: 0, w: 0}
  - {x: 0, y: 0, z: 0, w: 0}
  - {x: 0, y: 0, z: 0, w: 0}
  - {x: 0, y: 0, z: 0, w: 0}
  - {x: 0, y: 0, z: 0, w: 0}
  - {x: 0, y: 0, z: 0, w: 0}
  - {x: 0, y: 0, z: 0, w: 0}
  - {x: 0, y: 0, z: 0, w: 0}
  - {x: 0, y: 0, z: 0, w: 0}
  - {x: 0, y: 0, z: 0, w: 0}
  - {x: 0, y: 0, z: 0, w: 0}
  - {x: 0, y: 0, z: 0, w: 0}
  - {x: 0, y: 0, z: 0, w: 0}
  - {x: 0, y: 0, z: 0, w: 0}
  - {x: 0, y: 0, z: 0, w: 0}
  - {x: 0, y: 0, z: 0, w: 0}
  - {x: 0, y: 0, z: 0, w: 0}
  - {x: 0, y: 0, z: 0, w: 0}
  - {x: 0, y: 0, z: 0, w: 0}
  - {x: 0, y: 0, z: 0, w: 0}
  - {x: 0, y: 0, z: 0, w: 0}
  - {x: 0, y: 0, z: 0, w: 0}
  - {x: 0, y: 0, z: 0, w: 0}
  - {x: 0, y: 0, z: 0, w: 0}
  - {x: 0, y: 0, z: 0, w: 0}
  - {x: 0, y: 0, z: 0, w: 0}
  - {x: 0, y: 0, z: 0, w: 0}
  - {x: 0, y: 0, z: 0, w: 0}
  - {x: 0, y: 0, z: 0, w: 0}
  - {x: 0, y: 0, z: 0, w: 0}
  - {x: 0, y: 0, z: 0, w: 0}
  - {x: 0, y: 0, z: 0, w: 0}
  - {x: 0, y: 0, z: 0, w: 0}
  - {x: 0, y: 0, z: 0, w: 0}
  - {x: 0, y: 0, z: 0, w: 0}
  - {x: 0, y: 0, z: 0, w: 0}
  - {x: 0, y: 0, z: 0, w: 0}
  - {x: 0, y: 0, z: 0, w: 0}
  - {x: 0, y: 0, z: 0, w: 0}
  - {x: 0, y: 0, z: 0, w: 0}
  - {x: 0, y: 0, z: 0, w: 0}
  - {x: 0, y: 0, z: 0, w: 0}
  - {x: 0, y: 0, z: 0, w: 0}
  - {x: 0, y: 0, z: 0, w: 0}
  - {x: 0, y: 0, z: 0, w: 0}
  - {x: 0, y: 0, z: 0, w: 0}
  - {x: 0, y: 0, z: 0, w: 0}
  - {x: 0, y: 0, z: 0, w: 0}
  - {x: 0, y: 0, z: 0, w: 0}
  - {x: 0, y: 0, z: 0, w: 0}
  - {x: 0, y: 0, z: 0, w: 0}
  - {x: 0, y: 0, z: 0, w: 0}
  - {x: 0, y: 0, z: 0, w: 0}
  - {x: 0, y: 0, z: 0, w: 0}
  - {x: 0, y: 0, z: 0, w: 0}
  - {x: 0, y: 0, z: 0, w: 0}
  - {x: 0, y: 0, z: 0, w: 0}
  - {x: 0, y: 0, z: 0, w: 0}
  - {x: 0, y: 0, z: 0, w: 0}
  - {x: 0, y: 0, z: 0, w: 0}
  - {x: 0, y: 0, z: 0, w: 0}
  - {x: 0, y: 0, z: 0, w: 0}
  - {x: 0, y: 0, z: 0, w: 0}
  - {x: 0, y: 0, z: 0, w: 0}
  - {x: 0, y: 0, z: 0, w: 0}
  - {x: 0, y: 0, z: 0, w: 0}
  - {x: 0, y: 0, z: 0, w: 0}
  - {x: 0, y: 0, z: 0, w: 0}
  - {x: 0, y: 0, z: 0, w: 0}
  - {x: 0, y: 0, z: 0, w: 0}
  - {x: 0, y: 0, z: 0, w: 0}
  - {x: 0, y: 0, z: 0, w: 0}
  - {x: 0, y: 0, z: 0, w: 0}
  - {x: 0, y: 0, z: 0, w: 0}
  - {x: 0, y: 0, z: 0, w: 0}
  - {x: 0, y: 0, z: 0, w: 0}
  - {x: 0, y: 0, z: 0, w: 0}
  - {x: 0, y: 0, z: 0, w: 0}
  - {x: 0, y: 0, z: 0, w: 0}
  - {x: 0, y: 0, z: 0, w: 0}
  - {x: 0, y: 0, z: 0, w: 0}
  - {x: 0, y: 0, z: 0, w: 0}
  - {x: 0, y: 0, z: 0, w: 0}
  - {x: 0, y: 0, z: 0, w: 0}
  - {x: 0, y: 0, z: 0, w: 0}
  - {x: 0, y: 0, z: 0, w: 0}
  - {x: 0, y: 0, z: 0, w: 0}
  - {x: 0, y: 0, z: 0, w: 0}
  - {x: 0, y: 0, z: 0, w: 0}
  - {x: 0, y: 0, z: 0, w: 0}
  - {x: 0, y: 0, z: 0, w: 0}
  - {x: 0, y: 0, z: 0, w: 0}
  - {x: 0, y: 0, z: 0, w: 0}
  orientations: []
  restOrientations: []
  velocities:
  - {x: 0, y: 0, z: 0}
  - {x: 0, y: 0, z: 0}
  - {x: 0, y: 0, z: 0}
  - {x: 0, y: 0, z: 0}
  - {x: 0, y: 0, z: 0}
  - {x: 0, y: 0, z: 0}
  - {x: 0, y: 0, z: 0}
  - {x: 0, y: 0, z: 0}
  - {x: 0, y: 0, z: 0}
  - {x: 0, y: 0, z: 0}
  - {x: 0, y: 0, z: 0}
  - {x: 0, y: 0, z: 0}
  - {x: 0, y: 0, z: 0}
  - {x: 0, y: 0, z: 0}
  - {x: 0, y: 0, z: 0}
  - {x: 0, y: 0, z: 0}
  - {x: 0, y: 0, z: 0}
  - {x: 0, y: 0, z: 0}
  - {x: 0, y: 0, z: 0}
  - {x: 0, y: 0, z: 0}
  - {x: 0, y: 0, z: 0}
  - {x: 0, y: 0, z: 0}
  - {x: 0, y: 0, z: 0}
  - {x: 0, y: 0, z: 0}
  - {x: 0, y: 0, z: 0}
  - {x: 0, y: 0, z: 0}
  - {x: 0, y: 0, z: 0}
  - {x: 0, y: 0, z: 0}
  - {x: 0, y: 0, z: 0}
  - {x: 0, y: 0, z: 0}
  - {x: 0, y: 0, z: 0}
  - {x: 0, y: 0, z: 0}
  - {x: 0, y: 0, z: 0}
  - {x: 0, y: 0, z: 0}
  - {x: 0, y: 0, z: 0}
  - {x: 0, y: 0, z: 0}
  - {x: 0, y: 0, z: 0}
  - {x: 0, y: 0, z: 0}
  - {x: 0, y: 0, z: 0}
  - {x: 0, y: 0, z: 0}
  - {x: 0, y: 0, z: 0}
  - {x: 0, y: 0, z: 0}
  - {x: 0, y: 0, z: 0}
  - {x: 0, y: 0, z: 0}
  - {x: 0, y: 0, z: 0}
  - {x: 0, y: 0, z: 0}
  - {x: 0, y: 0, z: 0}
  - {x: 0, y: 0, z: 0}
  - {x: 0, y: 0, z: 0}
  - {x: 0, y: 0, z: 0}
  - {x: 0, y: 0, z: 0}
  - {x: 0, y: 0, z: 0}
  - {x: 0, y: 0, z: 0}
  - {x: 0, y: 0, z: 0}
  - {x: 0, y: 0, z: 0}
  - {x: 0, y: 0, z: 0}
  - {x: 0, y: 0, z: 0}
  - {x: 0, y: 0, z: 0}
  - {x: 0, y: 0, z: 0}
  - {x: 0, y: 0, z: 0}
  - {x: 0, y: 0, z: 0}
  - {x: 0, y: 0, z: 0}
  - {x: 0, y: 0, z: 0}
  - {x: 0, y: 0, z: 0}
  - {x: 0, y: 0, z: 0}
  - {x: 0, y: 0, z: 0}
  - {x: 0, y: 0, z: 0}
  - {x: 0, y: 0, z: 0}
  - {x: 0, y: 0, z: 0}
  - {x: 0, y: 0, z: 0}
  - {x: 0, y: 0, z: 0}
  - {x: 0, y: 0, z: 0}
  - {x: 0, y: 0, z: 0}
  - {x: 0, y: 0, z: 0}
  - {x: 0, y: 0, z: 0}
  - {x: 0, y: 0, z: 0}
  - {x: 0, y: 0, z: 0}
  - {x: 0, y: 0, z: 0}
  - {x: 0, y: 0, z: 0}
  - {x: 0, y: 0, z: 0}
  - {x: 0, y: 0, z: 0}
  - {x: 0, y: 0, z: 0}
  - {x: 0, y: 0, z: 0}
  - {x: 0, y: 0, z: 0}
  - {x: 0, y: 0, z: 0}
  - {x: 0, y: 0, z: 0}
  - {x: 0, y: 0, z: 0}
  - {x: 0, y: 0, z: 0}
  - {x: 0, y: 0, z: 0}
  - {x: 0, y: 0, z: 0}
  - {x: 0, y: 0, z: 0}
  - {x: 0, y: 0, z: 0}
  - {x: 0, y: 0, z: 0}
  - {x: 0, y: 0, z: 0}
  - {x: 0, y: 0, z: 0}
  - {x: 0, y: 0, z: 0}
  - {x: 0, y: 0, z: 0}
  - {x: 0, y: 0, z: 0}
  - {x: 0, y: 0, z: 0}
  - {x: 0, y: 0, z: 0}
  - {x: 0, y: 0, z: 0}
  - {x: 0, y: 0, z: 0}
  - {x: 0, y: 0, z: 0}
  - {x: 0, y: 0, z: 0}
  - {x: 0, y: 0, z: 0}
  - {x: 0, y: 0, z: 0}
  - {x: 0, y: 0, z: 0}
  - {x: 0, y: 0, z: 0}
  - {x: 0, y: 0, z: 0}
  - {x: 0, y: 0, z: 0}
  - {x: 0, y: 0, z: 0}
  - {x: 0, y: 0, z: 0}
  - {x: 0, y: 0, z: 0}
  - {x: 0, y: 0, z: 0}
  - {x: 0, y: 0, z: 0}
  angularVelocities: []
  invMasses:
  - 10
  - 10.000001
  - 10
  - 10.000001
  - 9.999999
  - 9.999999
  - 9.999999
  - 9.999999
  - 9.999999
  - 9.999999
  - 9.999999
  - 10
  - 10
  - 10
  - 10
  - 0
  - 0
  - 0
  - 0
  - 0
  - 0
  - 0
  - 0
  - 0
  - 0
  - 0
  - 0
  - 0
  - 0
  - 0
  - 0
  - 0
  - 0
  - 0
  - 0
  - 0
  - 0
  - 0
  - 0
  - 0
  - 0
  - 0
  - 0
  - 0
  - 0
  - 0
  - 0
  - 0
  - 0
  - 0
  - 0
  - 0
  - 0
  - 0
  - 0
  - 0
  - 0
  - 0
  - 0
  - 0
  - 0
  - 0
  - 0
  - 0
  - 0
  - 0
  - 0
  - 0
  - 0
  - 0
  - 0
  - 0
  - 0
  - 0
  - 0
  - 0
  - 0
  - 0
  - 0
  - 0
  - 0
  - 0
  - 0
  - 0
  - 0
  - 0
  - 0
  - 0
  - 0
  - 0
  - 0
  - 0
  - 0
  - 0
  - 0
  - 0
  - 0
  - 0
  - 0
  - 0
  - 0
  - 0
  - 0
  - 0
  - 0
  - 0
  - 0
  - 0
  - 0
  - 0
  - 0
  - 0
  - 0
  - 0
  - 0
  invRotationalMasses: []
  filters: 0200ffff0200ffff0200ffff0200ffff0200ffff0200ffff0200ffff0200ffff0200ffff0200ffff0200ffff0200ffff0200ffff0200ffff0200ffff00000000000000000000000000000000000000000000000000000000000000000000000000000000000000000000000000000000000000000000000000000000000000000000000000000000000000000000000000000000000000000000000000000000000000000000000000000000000000000000000000000000000000000000000000000000000000000000000000000000000000000000000000000000000000000000000000000000000000000000000000000000000000000000000000000000000000000000000000000000000000000000000000000000000000000000000000000000000000000000000000000000000000000000000000000000000000000000000000000000000000000000000000000000000000000000000000000000000000000000000000000000000000000000000000000000000000000000000000000000000000000000000000000000000000000000000000000000000000000000000000000000000000000000000000000000000000000000000000000000000000000000000000000000
  principalRadii:
  - {x: 0.1, y: 0.1, z: 0.1}
  - {x: 0.099999994, y: 0.099999994, z: 0.099999994}
  - {x: 0.1, y: 0.1, z: 0.1}
  - {x: 0.099999994, y: 0.099999994, z: 0.099999994}
  - {x: 0.10000002, y: 0.10000002, z: 0.10000002}
  - {x: 0.10000002, y: 0.10000002, z: 0.10000002}
  - {x: 0.10000002, y: 0.10000002, z: 0.10000002}
  - {x: 0.10000002, y: 0.10000002, z: 0.10000002}
  - {x: 0.10000002, y: 0.10000002, z: 0.10000002}
  - {x: 0.10000002, y: 0.10000002, z: 0.10000002}
  - {x: 0.10000002, y: 0.10000002, z: 0.10000002}
  - {x: 0.1, y: 0.1, z: 0.1}
  - {x: 0.1, y: 0.1, z: 0.1}
  - {x: 0.1, y: 0.1, z: 0.1}
  - {x: 0.1, y: 0.1, z: 0.1}
  - {x: 0, y: 0, z: 0}
  - {x: 0, y: 0, z: 0}
  - {x: 0, y: 0, z: 0}
  - {x: 0, y: 0, z: 0}
  - {x: 0, y: 0, z: 0}
  - {x: 0, y: 0, z: 0}
  - {x: 0, y: 0, z: 0}
  - {x: 0, y: 0, z: 0}
  - {x: 0, y: 0, z: 0}
  - {x: 0, y: 0, z: 0}
  - {x: 0, y: 0, z: 0}
  - {x: 0, y: 0, z: 0}
  - {x: 0, y: 0, z: 0}
  - {x: 0, y: 0, z: 0}
  - {x: 0, y: 0, z: 0}
  - {x: 0, y: 0, z: 0}
  - {x: 0, y: 0, z: 0}
  - {x: 0, y: 0, z: 0}
  - {x: 0, y: 0, z: 0}
  - {x: 0, y: 0, z: 0}
  - {x: 0, y: 0, z: 0}
  - {x: 0, y: 0, z: 0}
  - {x: 0, y: 0, z: 0}
  - {x: 0, y: 0, z: 0}
  - {x: 0, y: 0, z: 0}
  - {x: 0, y: 0, z: 0}
  - {x: 0, y: 0, z: 0}
  - {x: 0, y: 0, z: 0}
  - {x: 0, y: 0, z: 0}
  - {x: 0, y: 0, z: 0}
  - {x: 0, y: 0, z: 0}
  - {x: 0, y: 0, z: 0}
  - {x: 0, y: 0, z: 0}
  - {x: 0, y: 0, z: 0}
  - {x: 0, y: 0, z: 0}
  - {x: 0, y: 0, z: 0}
  - {x: 0, y: 0, z: 0}
  - {x: 0, y: 0, z: 0}
  - {x: 0, y: 0, z: 0}
  - {x: 0, y: 0, z: 0}
  - {x: 0, y: 0, z: 0}
  - {x: 0, y: 0, z: 0}
  - {x: 0, y: 0, z: 0}
  - {x: 0, y: 0, z: 0}
  - {x: 0, y: 0, z: 0}
  - {x: 0, y: 0, z: 0}
  - {x: 0, y: 0, z: 0}
  - {x: 0, y: 0, z: 0}
  - {x: 0, y: 0, z: 0}
  - {x: 0, y: 0, z: 0}
  - {x: 0, y: 0, z: 0}
  - {x: 0, y: 0, z: 0}
  - {x: 0, y: 0, z: 0}
  - {x: 0, y: 0, z: 0}
  - {x: 0, y: 0, z: 0}
  - {x: 0, y: 0, z: 0}
  - {x: 0, y: 0, z: 0}
  - {x: 0, y: 0, z: 0}
  - {x: 0, y: 0, z: 0}
  - {x: 0, y: 0, z: 0}
  - {x: 0, y: 0, z: 0}
  - {x: 0, y: 0, z: 0}
  - {x: 0, y: 0, z: 0}
  - {x: 0, y: 0, z: 0}
  - {x: 0, y: 0, z: 0}
  - {x: 0, y: 0, z: 0}
  - {x: 0, y: 0, z: 0}
  - {x: 0, y: 0, z: 0}
  - {x: 0, y: 0, z: 0}
  - {x: 0, y: 0, z: 0}
  - {x: 0, y: 0, z: 0}
  - {x: 0, y: 0, z: 0}
  - {x: 0, y: 0, z: 0}
  - {x: 0, y: 0, z: 0}
  - {x: 0, y: 0, z: 0}
  - {x: 0, y: 0, z: 0}
  - {x: 0, y: 0, z: 0}
  - {x: 0, y: 0, z: 0}
  - {x: 0, y: 0, z: 0}
  - {x: 0, y: 0, z: 0}
  - {x: 0, y: 0, z: 0}
  - {x: 0, y: 0, z: 0}
  - {x: 0, y: 0, z: 0}
  - {x: 0, y: 0, z: 0}
  - {x: 0, y: 0, z: 0}
  - {x: 0, y: 0, z: 0}
  - {x: 0, y: 0, z: 0}
  - {x: 0, y: 0, z: 0}
  - {x: 0, y: 0, z: 0}
  - {x: 0, y: 0, z: 0}
  - {x: 0, y: 0, z: 0}
  - {x: 0, y: 0, z: 0}
  - {x: 0, y: 0, z: 0}
  - {x: 0, y: 0, z: 0}
  - {x: 0, y: 0, z: 0}
  - {x: 0, y: 0, z: 0}
  - {x: 0, y: 0, z: 0}
  - {x: 0, y: 0, z: 0}
  - {x: 0, y: 0, z: 0}
  - {x: 0, y: 0, z: 0}
  colors:
  - {r: 1, g: 1, b: 1, a: 1}
  - {r: 0.99999994, g: 0.99999994, b: 0.99999994, a: 0.99999994}
  - {r: 1, g: 1, b: 1, a: 1}
  - {r: 0.99999994, g: 0.99999994, b: 0.99999994, a: 0.99999994}
  - {r: 1.0000001, g: 1.0000001, b: 1.0000001, a: 1.0000001}
  - {r: 1.0000001, g: 1.0000001, b: 1.0000001, a: 1.0000001}
  - {r: 1.0000001, g: 1.0000001, b: 1.0000001, a: 1.0000001}
  - {r: 1.0000001, g: 1.0000001, b: 1.0000001, a: 1.0000001}
  - {r: 1.0000001, g: 1.0000001, b: 1.0000001, a: 1.0000001}
  - {r: 1.0000001, g: 1.0000001, b: 1.0000001, a: 1.0000001}
  - {r: 1.0000001, g: 1.0000001, b: 1.0000001, a: 1.0000001}
  - {r: 1, g: 1, b: 1, a: 1}
  - {r: 1, g: 1, b: 1, a: 1}
  - {r: 1, g: 1, b: 1, a: 1}
  - {r: 1, g: 1, b: 1, a: 1}
  - {r: 0, g: 0, b: 0, a: 0}
  - {r: 0, g: 0, b: 0, a: 0}
  - {r: 0, g: 0, b: 0, a: 0}
  - {r: 0, g: 0, b: 0, a: 0}
  - {r: 0, g: 0, b: 0, a: 0}
  - {r: 0, g: 0, b: 0, a: 0}
  - {r: 0, g: 0, b: 0, a: 0}
  - {r: 0, g: 0, b: 0, a: 0}
  - {r: 0, g: 0, b: 0, a: 0}
  - {r: 0, g: 0, b: 0, a: 0}
  - {r: 0, g: 0, b: 0, a: 0}
  - {r: 0, g: 0, b: 0, a: 0}
  - {r: 0, g: 0, b: 0, a: 0}
  - {r: 0, g: 0, b: 0, a: 0}
  - {r: 0, g: 0, b: 0, a: 0}
  - {r: 0, g: 0, b: 0, a: 0}
  - {r: 0, g: 0, b: 0, a: 0}
  - {r: 0, g: 0, b: 0, a: 0}
  - {r: 0, g: 0, b: 0, a: 0}
  - {r: 0, g: 0, b: 0, a: 0}
  - {r: 0, g: 0, b: 0, a: 0}
  - {r: 0, g: 0, b: 0, a: 0}
  - {r: 0, g: 0, b: 0, a: 0}
  - {r: 0, g: 0, b: 0, a: 0}
  - {r: 0, g: 0, b: 0, a: 0}
  - {r: 0, g: 0, b: 0, a: 0}
  - {r: 0, g: 0, b: 0, a: 0}
  - {r: 0, g: 0, b: 0, a: 0}
  - {r: 0, g: 0, b: 0, a: 0}
  - {r: 0, g: 0, b: 0, a: 0}
  - {r: 0, g: 0, b: 0, a: 0}
  - {r: 0, g: 0, b: 0, a: 0}
  - {r: 0, g: 0, b: 0, a: 0}
  - {r: 0, g: 0, b: 0, a: 0}
  - {r: 0, g: 0, b: 0, a: 0}
  - {r: 0, g: 0, b: 0, a: 0}
  - {r: 0, g: 0, b: 0, a: 0}
  - {r: 0, g: 0, b: 0, a: 0}
  - {r: 0, g: 0, b: 0, a: 0}
  - {r: 0, g: 0, b: 0, a: 0}
  - {r: 0, g: 0, b: 0, a: 0}
  - {r: 0, g: 0, b: 0, a: 0}
  - {r: 0, g: 0, b: 0, a: 0}
  - {r: 0, g: 0, b: 0, a: 0}
  - {r: 0, g: 0, b: 0, a: 0}
  - {r: 0, g: 0, b: 0, a: 0}
  - {r: 0, g: 0, b: 0, a: 0}
  - {r: 0, g: 0, b: 0, a: 0}
  - {r: 0, g: 0, b: 0, a: 0}
  - {r: 0, g: 0, b: 0, a: 0}
  - {r: 0, g: 0, b: 0, a: 0}
  - {r: 0, g: 0, b: 0, a: 0}
  - {r: 0, g: 0, b: 0, a: 0}
  - {r: 0, g: 0, b: 0, a: 0}
  - {r: 0, g: 0, b: 0, a: 0}
  - {r: 0, g: 0, b: 0, a: 0}
  - {r: 0, g: 0, b: 0, a: 0}
  - {r: 0, g: 0, b: 0, a: 0}
  - {r: 0, g: 0, b: 0, a: 0}
  - {r: 0, g: 0, b: 0, a: 0}
  - {r: 0, g: 0, b: 0, a: 0}
  - {r: 0, g: 0, b: 0, a: 0}
  - {r: 0, g: 0, b: 0, a: 0}
  - {r: 0, g: 0, b: 0, a: 0}
  - {r: 0, g: 0, b: 0, a: 0}
  - {r: 0, g: 0, b: 0, a: 0}
  - {r: 0, g: 0, b: 0, a: 0}
  - {r: 0, g: 0, b: 0, a: 0}
  - {r: 0, g: 0, b: 0, a: 0}
  - {r: 0, g: 0, b: 0, a: 0}
  - {r: 0, g: 0, b: 0, a: 0}
  - {r: 0, g: 0, b: 0, a: 0}
  - {r: 0, g: 0, b: 0, a: 0}
  - {r: 0, g: 0, b: 0, a: 0}
  - {r: 0, g: 0, b: 0, a: 0}
  - {r: 0, g: 0, b: 0, a: 0}
  - {r: 0, g: 0, b: 0, a: 0}
  - {r: 0, g: 0, b: 0, a: 0}
  - {r: 0, g: 0, b: 0, a: 0}
  - {r: 0, g: 0, b: 0, a: 0}
  - {r: 0, g: 0, b: 0, a: 0}
  - {r: 0, g: 0, b: 0, a: 0}
  - {r: 0, g: 0, b: 0, a: 0}
  - {r: 0, g: 0, b: 0, a: 0}
  - {r: 0, g: 0, b: 0, a: 0}
  - {r: 0, g: 0, b: 0, a: 0}
  - {r: 0, g: 0, b: 0, a: 0}
  - {r: 0, g: 0, b: 0, a: 0}
  - {r: 0, g: 0, b: 0, a: 0}
  - {r: 0, g: 0, b: 0, a: 0}
  - {r: 0, g: 0, b: 0, a: 0}
  - {r: 0, g: 0, b: 0, a: 0}
  - {r: 0, g: 0, b: 0, a: 0}
  - {r: 0, g: 0, b: 0, a: 0}
  - {r: 0, g: 0, b: 0, a: 0}
  - {r: 0, g: 0, b: 0, a: 0}
  - {r: 0, g: 0, b: 0, a: 0}
  - {r: 0, g: 0, b: 0, a: 0}
  - {r: 0, g: 0, b: 0, a: 0}
  - {r: 0, g: 0, b: 0, a: 0}
  points: 
  edges: 000000000100000001000000020000000200000003000000030000000400000004000000050000000500000006000000060000000700000007000000080000000800000009000000090000000a0000000a0000000b0000000b0000000c0000000c0000000d0000000d0000000e000000
  triangles: 
  distanceConstraintsData:
    batches:
    - m_IDs: 000000000100000002000000030000000400000005000000060000000700000008000000090000000a0000000b0000000c0000000d0000000e0000000f000000100000001100000012000000130000001400000015000000160000001700000018000000190000001a0000001b0000001c0000001d0000001e0000001f000000200000002100000022000000230000002400000025000000260000002700000028000000290000002a0000002b0000002c0000002d0000002e0000002f000000300000003100000032000000330000003400000035000000360000003700000038000000
      m_IDToIndex: 000000000100000002000000030000000400000005000000060000000700000008000000090000000a0000000b0000000c0000000d0000000e0000000f000000100000001100000012000000130000001400000015000000160000001700000018000000190000001a0000001b0000001c0000001d0000001e0000001f000000200000002100000022000000230000002400000025000000260000002700000028000000290000002a0000002b0000002c0000002d0000002e0000002f000000300000003100000032000000330000003400000035000000360000003700000038000000
      m_ConstraintCount: 57
      m_ActiveConstraintCount: 7
      m_InitialActiveConstraintCount: 7
      particleIndices:
        serializedContents: 000000000100000002000000030000000400000005000000060000000700000008000000090000000a0000000b0000000c0000000d00000000000000000000000000000000000000000000000000000000000000000000000000000000000000000000000000000000000000000000000000000000000000000000000000000000000000000000000000000000000000000000000000000000000000000000000000000000000000000000000000000000000000000000000000000000000000000000000000000000000000000000000000000000000000000000000000000000000000000000000000000000000000000000000000000000000000000000000000000000000000000000000000000000000000000000000000000000000000000000000000000000000000000000000000000000000000000000000000000000000000000000000000000000000000000000000000000000000000000000000000000000000000000000000000000000000000000000000000000000000000000000000000000000000000000000000000000000000000000000000000000000000000000000000000000000000000000000000000000000000000000000000000000000000000
        m_AlignBytes: 16
      lambdas:
        serializedContents: []
        m_AlignBytes: 16
      restLengths:
        serializedContents:
        - 0.37552387
        - 0.37698215
        - 0.37650478
        - 0.37219614
        - 0.39089042
        - 0.3903488
        - 0.38890767
        - 0
        - 0
        - 0
        - 0
        - 0
        - 0
        - 0
        - 0
        - 0
        - 0
        - 0
        - 0
        - 0
        - 0
        - 0
        - 0
        - 0
        - 0
        - 0
        - 0
        - 0
        - 0
        - 0
        - 0
        - 0
        - 0
        - 0
        - 0
        - 0
        - 0
        - 0
        - 0
        - 0
        - 0
        - 0
        - 0
        - 0
        - 0
        - 0
        - 0
        - 0
        - 0
        - 0
        - 0
        - 0
        - 0
        - 0
        - 0
        - 0
        - 0
        m_AlignBytes: 16
      stiffnesses:
        serializedContents:
        - {x: 0, y: 0}
        - {x: 0, y: 0}
        - {x: 0, y: 0}
        - {x: 0, y: 0}
        - {x: 0, y: 0}
        - {x: 0, y: 0}
        - {x: 0, y: 0}
        - {x: 0, y: 0}
        - {x: 0, y: 0}
        - {x: 0, y: 0}
        - {x: 0, y: 0}
        - {x: 0, y: 0}
        - {x: 0, y: 0}
        - {x: 0, y: 0}
        - {x: 0, y: 0}
        - {x: 0, y: 0}
        - {x: 0, y: 0}
        - {x: 0, y: 0}
        - {x: 0, y: 0}
        - {x: 0, y: 0}
        - {x: 0, y: 0}
        - {x: 0, y: 0}
        - {x: 0, y: 0}
        - {x: 0, y: 0}
        - {x: 0, y: 0}
        - {x: 0, y: 0}
        - {x: 0, y: 0}
        - {x: 0, y: 0}
        - {x: 0, y: 0}
        - {x: 0, y: 0}
        - {x: 0, y: 0}
        - {x: 0, y: 0}
        - {x: 0, y: 0}
        - {x: 0, y: 0}
        - {x: 0, y: 0}
        - {x: 0, y: 0}
        - {x: 0, y: 0}
        - {x: 0, y: 0}
        - {x: 0, y: 0}
        - {x: 0, y: 0}
        - {x: 0, y: 0}
        - {x: 0, y: 0}
        - {x: 0, y: 0}
        - {x: 0, y: 0}
        - {x: 0, y: 0}
        - {x: 0, y: 0}
        - {x: 0, y: 0}
        - {x: 0, y: 0}
        - {x: 0, y: 0}
        - {x: 0, y: 0}
        - {x: 0, y: 0}
        - {x: 0, y: 0}
        - {x: 0, y: 0}
        - {x: 0, y: 0}
        - {x: 0, y: 0}
        - {x: 0, y: 0}
        - {x: 0, y: 0}
        m_AlignBytes: 16
    - m_IDs: 000000000100000002000000030000000400000005000000060000000700000008000000090000000a0000000b0000000c0000000d0000000e0000000f000000100000001100000012000000130000001400000015000000160000001700000018000000190000001a0000001b0000001c0000001d0000001e0000001f000000200000002100000022000000230000002400000025000000260000002700000028000000290000002a0000002b0000002c0000002d0000002e0000002f000000300000003100000032000000330000003400000035000000360000003700000038000000
      m_IDToIndex: 000000000100000002000000030000000400000005000000060000000700000008000000090000000a0000000b0000000c0000000d0000000e0000000f000000100000001100000012000000130000001400000015000000160000001700000018000000190000001a0000001b0000001c0000001d0000001e0000001f000000200000002100000022000000230000002400000025000000260000002700000028000000290000002a0000002b0000002c0000002d0000002e0000002f000000300000003100000032000000330000003400000035000000360000003700000038000000
      m_ConstraintCount: 57
      m_ActiveConstraintCount: 7
      m_InitialActiveConstraintCount: 7
      particleIndices:
        serializedContents: 0100000002000000030000000400000005000000060000000700000008000000090000000a0000000b0000000c0000000d0000000e00000000000000000000000000000000000000000000000000000000000000000000000000000000000000000000000000000000000000000000000000000000000000000000000000000000000000000000000000000000000000000000000000000000000000000000000000000000000000000000000000000000000000000000000000000000000000000000000000000000000000000000000000000000000000000000000000000000000000000000000000000000000000000000000000000000000000000000000000000000000000000000000000000000000000000000000000000000000000000000000000000000000000000000000000000000000000000000000000000000000000000000000000000000000000000000000000000000000000000000000000000000000000000000000000000000000000000000000000000000000000000000000000000000000000000000000000000000000000000000000000000000000000000000000000000000000000000000000000000000000000000000000000000000000000
        m_AlignBytes: 16
      lambdas:
        serializedContents: []
        m_AlignBytes: 16
      restLengths:
        serializedContents:
        - 0.37542483
        - 0.37683314
        - 0.37732378
        - 0.3857357
        - 0.39000285
        - 0.39050785
        - 0.38898513
        - 0
        - 0
        - 0
        - 0
        - 0
        - 0
        - 0
        - 0
        - 0
        - 0
        - 0
        - 0
        - 0
        - 0
        - 0
        - 0
        - 0
        - 0
        - 0
        - 0
        - 0
        - 0
        - 0
        - 0
        - 0
        - 0
        - 0
        - 0
        - 0
        - 0
        - 0
        - 0
        - 0
        - 0
        - 0
        - 0
        - 0
        - 0
        - 0
        - 0
        - 0
        - 0
        - 0
        - 0
        - 0
        - 0
        - 0
        - 0
        - 0
        - 0
        m_AlignBytes: 16
      stiffnesses:
        serializedContents:
        - {x: 0, y: 0}
        - {x: 0, y: 0}
        - {x: 0, y: 0}
        - {x: 0, y: 0}
        - {x: 0, y: 0}
        - {x: 0, y: 0}
        - {x: 0, y: 0}
        - {x: 0, y: 0}
        - {x: 0, y: 0}
        - {x: 0, y: 0}
        - {x: 0, y: 0}
        - {x: 0, y: 0}
        - {x: 0, y: 0}
        - {x: 0, y: 0}
        - {x: 0, y: 0}
        - {x: 0, y: 0}
        - {x: 0, y: 0}
        - {x: 0, y: 0}
        - {x: 0, y: 0}
        - {x: 0, y: 0}
        - {x: 0, y: 0}
        - {x: 0, y: 0}
        - {x: 0, y: 0}
        - {x: 0, y: 0}
        - {x: 0, y: 0}
        - {x: 0, y: 0}
        - {x: 0, y: 0}
        - {x: 0, y: 0}
        - {x: 0, y: 0}
        - {x: 0, y: 0}
        - {x: 0, y: 0}
        - {x: 0, y: 0}
        - {x: 0, y: 0}
        - {x: 0, y: 0}
        - {x: 0, y: 0}
        - {x: 0, y: 0}
        - {x: 0, y: 0}
        - {x: 0, y: 0}
        - {x: 0, y: 0}
        - {x: 0, y: 0}
        - {x: 0, y: 0}
        - {x: 0, y: 0}
        - {x: 0, y: 0}
        - {x: 0, y: 0}
        - {x: 0, y: 0}
        - {x: 0, y: 0}
        - {x: 0, y: 0}
        - {x: 0, y: 0}
        - {x: 0, y: 0}
        - {x: 0, y: 0}
        - {x: 0, y: 0}
        - {x: 0, y: 0}
        - {x: 0, y: 0}
        - {x: 0, y: 0}
        - {x: 0, y: 0}
        - {x: 0, y: 0}
        - {x: 0, y: 0}
        m_AlignBytes: 16
  bendConstraintsData:
    batches:
    - m_IDs: 000000000100000002000000030000000400000005000000060000000700000008000000090000000a0000000b0000000c0000000d0000000e0000000f000000100000001100000012000000130000001400000015000000160000001700000018000000190000001a0000001b0000001c0000001d0000001e0000001f000000200000002100000022000000230000002400000025000000
      m_IDToIndex: 000000000100000002000000030000000400000005000000060000000700000008000000090000000a0000000b0000000c0000000d0000000e0000000f000000100000001100000012000000130000001400000015000000160000001700000018000000190000001a0000001b0000001c0000001d0000001e0000001f000000200000002100000022000000230000002400000025000000
      m_ConstraintCount: 38
      m_ActiveConstraintCount: 5
      m_InitialActiveConstraintCount: 5
      particleIndices:
        serializedContents: 000000000200000001000000030000000500000004000000060000000800000007000000090000000b0000000a0000000c0000000e0000000d0000000f0000001100000010000000120000001400000013000000150000001700000016000000180000001a000000190000001b0000001d0000001c0000001e000000200000001f0000002100000023000000220000002400000026000000250000002700000029000000280000002a0000002c0000002b0000002d0000002f0000002e000000300000003200000031000000330000003500000034000000360000003800000037000000390000003b0000003a0000003c0000003e0000003d0000003f0000004100000040000000420000004400000043000000450000004700000046000000480000004a000000490000004b0000004d0000004c0000004e000000500000004f0000005100000053000000520000005400000056000000550000005700000059000000580000005a0000005c0000005b0000005d0000005f0000005e000000600000006200000061000000630000006500000064000000660000006800000067000000690000006b0000006a0000006c0000006e0000006d0000006f0000007100000070000000
        m_AlignBytes: 16
      lambdas:
        serializedContents: []
        m_AlignBytes: 16
      restBends:
        serializedContents:
        - 0.0005291489
        - 0.0010931727
        - 0.16315626
        - 0.001082279
        - 0.00052350154
        - 0
        - 0
        - 0
        - 0
        - 0
        - 0
        - 0
        - 0
        - 0
        - 0
        - 0
        - 0
        - 0
        - 0
        - 0
        - 0
        - 0
        - 0
        - 0
        - 0
        - 0
        - 0
        - 0
        - 0
        - 0
        - 0
        - 0
        - 0
        - 0
        - 0
        - 0
        - 0
        - 0
        m_AlignBytes: 16
      bendingStiffnesses:
        serializedContents:
        - {x: 0, y: 0}
        - {x: 0, y: 0}
        - {x: 0, y: 0}
        - {x: 0, y: 0}
        - {x: 0, y: 0}
        - {x: 0, y: 0}
        - {x: 0, y: 0}
        - {x: 0, y: 0}
        - {x: 0, y: 0}
        - {x: 0, y: 0}
        - {x: 0, y: 0}
        - {x: 0, y: 0}
        - {x: 0, y: 0}
        - {x: 0, y: 0}
        - {x: 0, y: 0}
        - {x: 0, y: 0}
        - {x: 0, y: 0}
        - {x: 0, y: 0}
        - {x: 0, y: 0}
        - {x: 0, y: 0}
        - {x: 0, y: 0}
        - {x: 0, y: 0}
        - {x: 0, y: 0}
        - {x: 0, y: 0}
        - {x: 0, y: 0}
        - {x: 0, y: 0}
        - {x: 0, y: 0}
        - {x: 0, y: 0}
        - {x: 0, y: 0}
        - {x: 0, y: 0}
        - {x: 0, y: 0}
        - {x: 0, y: 0}
        - {x: 0, y: 0}
        - {x: 0, y: 0}
        - {x: 0, y: 0}
        - {x: 0, y: 0}
        - {x: 0, y: 0}
        - {x: 0, y: 0}
        m_AlignBytes: 16
      plasticity:
        serializedContents:
        - {x: 0, y: 0}
        - {x: 0, y: 0}
        - {x: 0, y: 0}
        - {x: 0, y: 0}
        - {x: 0, y: 0}
        - {x: 0, y: 0}
        - {x: 0, y: 0}
        - {x: 0, y: 0}
        - {x: 0, y: 0}
        - {x: 0, y: 0}
        - {x: 0, y: 0}
        - {x: 0, y: 0}
        - {x: 0, y: 0}
        - {x: 0, y: 0}
        - {x: 0, y: 0}
        - {x: 0, y: 0}
        - {x: 0, y: 0}
        - {x: 0, y: 0}
        - {x: 0, y: 0}
        - {x: 0, y: 0}
        - {x: 0, y: 0}
        - {x: 0, y: 0}
        - {x: 0, y: 0}
        - {x: 0, y: 0}
        - {x: 0, y: 0}
        - {x: 0, y: 0}
        - {x: 0, y: 0}
        - {x: 0, y: 0}
        - {x: 0, y: 0}
        - {x: 0, y: 0}
        - {x: 0, y: 0}
        - {x: 0, y: 0}
        - {x: 0, y: 0}
        - {x: 0, y: 0}
        - {x: 0, y: 0}
        - {x: 0, y: 0}
        - {x: 0, y: 0}
        - {x: 0, y: 0}
        m_AlignBytes: 16
    - m_IDs: 000000000100000002000000030000000400000005000000060000000700000008000000090000000a0000000b0000000c0000000d0000000e0000000f000000100000001100000012000000130000001400000015000000160000001700000018000000190000001a0000001b0000001c0000001d0000001e0000001f000000200000002100000022000000230000002400000025000000
      m_IDToIndex: 000000000100000002000000030000000400000005000000060000000700000008000000090000000a0000000b0000000c0000000d0000000e0000000f000000100000001100000012000000130000001400000015000000160000001700000018000000190000001a0000001b0000001c0000001d0000001e0000001f000000200000002100000022000000230000002400000025000000
      m_ConstraintCount: 38
      m_ActiveConstraintCount: 4
      m_InitialActiveConstraintCount: 4
      particleIndices:
        serializedContents: 0100000003000000020000000400000006000000050000000700000009000000080000000a0000000c0000000b0000000d0000000f0000000e000000100000001200000011000000130000001500000014000000160000001800000017000000190000001b0000001a0000001c0000001e0000001d0000001f0000002100000020000000220000002400000023000000250000002700000026000000280000002a000000290000002b0000002d0000002c0000002e000000300000002f0000003100000033000000320000003400000036000000350000003700000039000000380000003a0000003c0000003b0000003d0000003f0000003e000000400000004200000041000000430000004500000044000000460000004800000047000000490000004b0000004a0000004c0000004e0000004d0000004f0000005100000050000000520000005400000053000000550000005700000056000000580000005a000000590000005b0000005d0000005c0000005e000000600000005f0000006100000063000000620000006400000066000000650000006700000069000000680000006a0000006c0000006b0000006d0000006f0000006e000000700000007200000071000000
        m_AlignBytes: 16
      lambdas:
        serializedContents: []
        m_AlignBytes: 16
      restBends:
        serializedContents:
        - 0.00076542184
        - 0.00206448
        - 0.010603808
        - 0.00072422926
        - 0.8833589
        - 0
        - 0
        - 0
        - 0
        - 0
        - 0
        - 0
        - 0
        - 0
        - 0
        - 0
        - 0
        - 0
        - 0
        - 0
        - 0
        - 0
        - 0
        - 0
        - 0
        - 0
        - 0
        - 0
        - 0
        - 0
        - 0
        - 0
        - 0
        - 0
        - 0
        - 0
        - 0
        - 0
        m_AlignBytes: 16
      bendingStiffnesses:
        serializedContents:
        - {x: 0, y: 0}
        - {x: 0, y: 0}
        - {x: 0, y: 0}
        - {x: 0, y: 0}
        - {x: 0, y: 0}
        - {x: 0, y: 0}
        - {x: 0, y: 0}
        - {x: 0, y: 0}
        - {x: 0, y: 0}
        - {x: 0, y: 0}
        - {x: 0, y: 0}
        - {x: 0, y: 0}
        - {x: 0, y: 0}
        - {x: 0, y: 0}
        - {x: 0, y: 0}
        - {x: 0, y: 0}
        - {x: 0, y: 0}
        - {x: 0, y: 0}
        - {x: 0, y: 0}
        - {x: 0, y: 0}
        - {x: 0, y: 0}
        - {x: 0, y: 0}
        - {x: 0, y: 0}
        - {x: 0, y: 0}
        - {x: 0, y: 0}
        - {x: 0, y: 0}
        - {x: 0, y: 0}
        - {x: 0, y: 0}
        - {x: 0, y: 0}
        - {x: 0, y: 0}
        - {x: 0, y: 0}
        - {x: 0, y: 0}
        - {x: 0, y: 0}
        - {x: 0, y: 0}
        - {x: 0, y: 0}
        - {x: 0, y: 0}
        - {x: 0, y: 0}
        - {x: 0, y: 0}
        m_AlignBytes: 16
      plasticity:
        serializedContents:
        - {x: 0, y: 0}
        - {x: 0, y: 0}
        - {x: 0, y: 0}
        - {x: 0, y: 0}
        - {x: 0, y: 0}
        - {x: 0, y: 0}
        - {x: 0, y: 0}
        - {x: 0, y: 0}
        - {x: 0, y: 0}
        - {x: 0, y: 0}
        - {x: 0, y: 0}
        - {x: 0, y: 0}
        - {x: 0, y: 0}
        - {x: 0, y: 0}
        - {x: 0, y: 0}
        - {x: 0, y: 0}
        - {x: 0, y: 0}
        - {x: 0, y: 0}
        - {x: 0, y: 0}
        - {x: 0, y: 0}
        - {x: 0, y: 0}
        - {x: 0, y: 0}
        - {x: 0, y: 0}
        - {x: 0, y: 0}
        - {x: 0, y: 0}
        - {x: 0, y: 0}
        - {x: 0, y: 0}
        - {x: 0, y: 0}
        - {x: 0, y: 0}
        - {x: 0, y: 0}
        - {x: 0, y: 0}
        - {x: 0, y: 0}
        - {x: 0, y: 0}
        - {x: 0, y: 0}
        - {x: 0, y: 0}
        - {x: 0, y: 0}
        - {x: 0, y: 0}
        - {x: 0, y: 0}
        m_AlignBytes: 16
    - m_IDs: 000000000100000002000000030000000400000005000000060000000700000008000000090000000a0000000b0000000c0000000d0000000e0000000f000000100000001100000012000000130000001400000015000000160000001700000018000000190000001a0000001b0000001c0000001d0000001e0000001f0000002000000021000000220000002300000024000000
      m_IDToIndex: 000000000100000002000000030000000400000005000000060000000700000008000000090000000a0000000b0000000c0000000d0000000e0000000f000000100000001100000012000000130000001400000015000000160000001700000018000000190000001a0000001b0000001c0000001d0000001e0000001f0000002000000021000000220000002300000024000000
      m_ConstraintCount: 37
      m_ActiveConstraintCount: 4
      m_InitialActiveConstraintCount: 4
      particleIndices:
        serializedContents: 020000000400000003000000050000000700000006000000080000000a000000090000000b0000000d0000000c0000000e000000100000000f0000001100000013000000120000001400000016000000150000001700000019000000180000001a0000001c0000001b0000001d0000001f0000001e000000200000002200000021000000230000002500000024000000260000002800000027000000290000002b0000002a0000002c0000002e0000002d0000002f0000003100000030000000320000003400000033000000350000003700000036000000380000003a000000390000003b0000003d0000003c0000003e000000400000003f0000004100000043000000420000004400000046000000450000004700000049000000480000004a0000004c0000004b0000004d0000004f0000004e000000500000005200000051000000530000005500000054000000560000005800000057000000590000005b0000005a0000005c0000005e0000005d0000005f0000006100000060000000620000006400000063000000650000006700000066000000680000006a000000690000006b0000006d0000006c0000006e000000700000006f000000
        m_AlignBytes: 16
      lambdas:
        serializedContents: []
        m_AlignBytes: 16
      restBends:
        serializedContents:
        - 0.00073139905
        - 0.01073856
        - 0.0020456156
        - 0.0007711918
        - 0.7885017
        - 0
        - 0
        - 0
        - 0
        - 0
        - 0
        - 0
        - 0
        - 0
        - 0
        - 0
        - 0
        - 0
        - 0
        - 0
        - 0
        - 0
        - 0
        - 0
        - 0
        - 0
        - 0
        - 0
        - 0
        - 0
        - 0
        - 0
        - 0
        - 0
        - 0
        - 0
        - 0
        m_AlignBytes: 16
      bendingStiffnesses:
        serializedContents:
        - {x: 0, y: 0}
        - {x: 0, y: 0}
        - {x: 0, y: 0}
        - {x: 0, y: 0}
        - {x: 0, y: 0}
        - {x: 0, y: 0}
        - {x: 0, y: 0}
        - {x: 0, y: 0}
        - {x: 0, y: 0}
        - {x: 0, y: 0}
        - {x: 0, y: 0}
        - {x: 0, y: 0}
        - {x: 0, y: 0}
        - {x: 0, y: 0}
        - {x: 0, y: 0}
        - {x: 0, y: 0}
        - {x: 0, y: 0}
        - {x: 0, y: 0}
        - {x: 0, y: 0}
        - {x: 0, y: 0}
        - {x: 0, y: 0}
        - {x: 0, y: 0}
        - {x: 0, y: 0}
        - {x: 0, y: 0}
        - {x: 0, y: 0}
        - {x: 0, y: 0}
        - {x: 0, y: 0}
        - {x: 0, y: 0}
        - {x: 0, y: 0}
        - {x: 0, y: 0}
        - {x: 0, y: 0}
        - {x: 0, y: 0}
        - {x: 0, y: 0}
        - {x: 0, y: 0}
        - {x: 0, y: 0}
        - {x: 0, y: 0}
        - {x: 0, y: 0}
        m_AlignBytes: 16
      plasticity:
        serializedContents:
        - {x: 0, y: 0}
        - {x: 0, y: 0}
        - {x: 0, y: 0}
        - {x: 0, y: 0}
        - {x: 0, y: 0}
        - {x: 0, y: 0}
        - {x: 0, y: 0}
        - {x: 0, y: 0}
        - {x: 0, y: 0}
        - {x: 0, y: 0}
        - {x: 0, y: 0}
        - {x: 0, y: 0}
        - {x: 0, y: 0}
        - {x: 0, y: 0}
        - {x: 0, y: 0}
        - {x: 0, y: 0}
        - {x: 0, y: 0}
        - {x: 0, y: 0}
        - {x: 0, y: 0}
        - {x: 0, y: 0}
        - {x: 0, y: 0}
        - {x: 0, y: 0}
        - {x: 0, y: 0}
        - {x: 0, y: 0}
        - {x: 0, y: 0}
        - {x: 0, y: 0}
        - {x: 0, y: 0}
        - {x: 0, y: 0}
        - {x: 0, y: 0}
        - {x: 0, y: 0}
        - {x: 0, y: 0}
        - {x: 0, y: 0}
        - {x: 0, y: 0}
        - {x: 0, y: 0}
        - {x: 0, y: 0}
        - {x: 0, y: 0}
        - {x: 0, y: 0}
        m_AlignBytes: 16
  skinConstraintsData:
    batches: []
  tetherConstraintsData:
    batches: []
  stretchShearConstraintsData:
    batches: []
  bendTwistConstraintsData:
    batches: []
  shapeMatchingConstraintsData:
    batches: []
  aerodynamicConstraintsData:
    batches: []
  chainConstraintsData:
    batches: []
  volumeConstraintsData:
    batches: []
  groups:
  - {fileID: 3815128430543911208}
  - {fileID: -3542052719298180846}
  - {fileID: 8108705245676457263}
  path:
    m_Names:
    - End
    - Mid
    - Start
    m_Points:
      data:
      - tangentMode: 0
        inTangent: {x: -0, y: -0, z: -0}
        position: {x: 1.3886263, y: 0, z: 0}
        outTangent: {x: 0, y: 0, z: 0}
      - tangentMode: 0
        inTangent: {x: 0.11879733, y: -0, z: -0}
        position: {x: -0.420926, y: 1.9066976, z: 0}
        outTangent: {x: -0.12162247, y: 0, z: 0}
      - tangentMode: 0
        inTangent: {x: 0, y: 0, z: 0}
        position: {x: -2.365505, y: 0, z: 0}
        outTangent: {x: -0, y: -0, z: -0}
    m_Normals:
      data:
      - {x: 0, y: 1, z: 0}
      - {x: 0, y: 1.0000001, z: 0}
      - {x: 0, y: 1, z: 0}
    m_Colors:
      data:
      - {r: 1, g: 1, b: 1, a: 1}
      - {r: 1.0000001, g: 1.0000001, b: 1.0000001, a: 1.0000001}
      - {r: 1, g: 1, b: 1, a: 1}
    m_Thickness:
      data:
      - 1
      - 1.0000001
      - 1
    m_Masses:
      data:
      - 0.1
      - 0.10000001
      - 0.1
    m_RotationalMasses:
      data:
      - 1
      - 1.0000001
      - 1
    m_Filters:
      data: 0200ffff0200ffff0200ffff
    m_Closed: 0
    m_ArcLengthTable:
    - 0
    - 0.016793968
    - 0.06500858
    - 0.14139298
    - 0.24269639
    - 0.36566818
    - 0.50705796
    - 0.6636154
    - 0.83209056
    - 1.0092338
    - 1.1917961
    - 1.3765289
    - 1.5601845
    - 1.7395169
    - 1.9112817
    - 2.0722382
    - 2.2191508
    - 2.348794
    - 2.4579632
    - 2.543504
    - 2.6024275
    - 2.6328013
    - 2.6643016
    - 2.7254994
    - 2.8142657
    - 2.9274828
    - 3.0618777
    - 3.2141304
    - 3.380901
    - 3.558841
    - 3.7445958
    - 3.9348083
    - 4.126119
    - 4.315168
    - 4.498594
    - 4.6730347
    - 4.835128
    - 4.9815106
    - 5.1088204
    - 5.213694
    - 5.292768
    - 5.342679
    - 5.3600636
    m_TotalSplineLenght: 5.3600636
    OnPathChanged:
      m_PersistentCalls:
        m_Calls: []
    OnControlPointAdded:
      m_PersistentCalls:
        m_Calls: []
    OnControlPointRemoved:
      m_PersistentCalls:
        m_Calls: []
    OnControlPointRenamed:
      m_PersistentCalls:
        m_Calls: []
  thickness: 0.1
  resolution: 0.25
  m_InterParticleDistance: 0.38286167
  totalParticles: 115
  m_RestLength: 43.642372
  restLengths:
  - 0.37552387
  - 0.37542483
  - 0.37698215
  - 0.37683314
  - 0.37650478
  - 0.37732378
  - 0.37219614
  - 0.3857357
  - 0.39089042
  - 0.39000285
  - 0.3903488
  - 0.39050785
  - 0.38890767
  - 0.38898513
  - 0.38286167
  - 0.38286167
  - 0.38286167
  - 0.38286167
  - 0.38286167
  - 0.38286167
  - 0.38286167
  - 0.38286167
  - 0.38286167
  - 0.38286167
  - 0.38286167
  - 0.38286167
  - 0.38286167
  - 0.38286167
  - 0.38286167
  - 0.38286167
  - 0.38286167
  - 0.38286167
  - 0.38286167
  - 0.38286167
  - 0.38286167
  - 0.38286167
  - 0.38286167
  - 0.38286167
  - 0.38286167
  - 0.38286167
  - 0.38286167
  - 0.38286167
  - 0.38286167
  - 0.38286167
  - 0.38286167
  - 0.38286167
  - 0.38286167
  - 0.38286167
  - 0.38286167
  - 0.38286167
  - 0.38286167
  - 0.38286167
  - 0.38286167
  - 0.38286167
  - 0.38286167
  - 0.38286167
  - 0.38286167
  - 0.38286167
  - 0.38286167
  - 0.38286167
  - 0.38286167
  - 0.38286167
  - 0.38286167
  - 0.38286167
  - 0.38286167
  - 0.38286167
  - 0.38286167
  - 0.38286167
  - 0.38286167
  - 0.38286167
  - 0.38286167
  - 0.38286167
  - 0.38286167
  - 0.38286167
  - 0.38286167
  - 0.38286167
  - 0.38286167
  - 0.38286167
  - 0.38286167
  - 0.38286167
  - 0.38286167
  - 0.38286167
  - 0.38286167
  - 0.38286167
  - 0.38286167
  - 0.38286167
  - 0.38286167
  - 0.38286167
  - 0.38286167
  - 0.38286167
  - 0.38286167
  - 0.38286167
  - 0.38286167
  - 0.38286167
  - 0.38286167
  - 0.38286167
  - 0.38286167
  - 0.38286167
  - 0.38286167
  - 0.38286167
  - 0.38286167
  - 0.38286167
  - 0.38286167
  - 0.38286167
  - 0.38286167
  - 0.38286167
  - 0.38286167
  - 0.38286167
  - 0.38286167
  - 0.38286167
  - 0.38286167
  - 0.38286167
  - 0.38286167
  - 0.38286167
  - 0
  pooledParticles: 100
--- !u!114 &3815128430543911208
MonoBehaviour:
  m_ObjectHideFlags: 0
  m_CorrespondingSourceObject: {fileID: 0}
  m_PrefabInstance: {fileID: 0}
  m_PrefabAsset: {fileID: 0}
  m_GameObject: {fileID: 0}
  m_Enabled: 1
  m_EditorHideFlags: 0
  m_Script: {fileID: 11500000, guid: 775ad4994fda946d1a5936c7e2dfc785, type: 3}
  m_Name: End
  m_EditorClassIdentifier: 
  particleIndices: 00000000
  m_Blueprint: {fileID: 11400000}
--- !u!114 &8108705245676457263
MonoBehaviour:
  m_ObjectHideFlags: 0
  m_CorrespondingSourceObject: {fileID: 0}
  m_PrefabInstance: {fileID: 0}
  m_PrefabAsset: {fileID: 0}
  m_GameObject: {fileID: 0}
  m_Enabled: 1
  m_EditorHideFlags: 0
  m_Script: {fileID: 11500000, guid: 775ad4994fda946d1a5936c7e2dfc785, type: 3}
  m_Name: Start
  m_EditorClassIdentifier: 
  particleIndices: 0e000000
  m_Blueprint: {fileID: 11400000}
