%YAML 1.1
%TAG !u! tag:unity3d.com,2011:
--- !u!1001 &5153508188747027107
PrefabInstance:
  m_ObjectHideFlags: 0
  serializedVersion: 2
  m_Modification:
    serializedVersion: 3
    m_TransformParent: {fileID: 0}
    m_Modifications:
    - target: {fileID: -8679921383154817045, guid: 468adec73621b9541a8c964145af749a, type: 3}
      propertyPath: m_LocalScale.x
      value: 2.5
      objectReference: {fileID: 0}
    - target: {fileID: -8679921383154817045, guid: 468adec73621b9541a8c964145af749a, type: 3}
      propertyPath: m_LocalScale.y
      value: 2.5
      objectReference: {fileID: 0}
    - target: {fileID: -8679921383154817045, guid: 468adec73621b9541a8c964145af749a, type: 3}
      propertyPath: m_LocalPosition.x
      value: -1.816
      objectReference: {fileID: 0}
    - target: {fileID: -8679921383154817045, guid: 468adec73621b9541a8c964145af749a, type: 3}
      propertyPath: m_LocalPosition.y
      value: 2.72
      objectReference: {fileID: 0}
    - target: {fileID: -8679921383154817045, guid: 468adec73621b9541a8c964145af749a, type: 3}
      propertyPath: m_LocalPosition.z
      value: -3.151
      objectReference: {fileID: 0}
    - target: {fileID: -8679921383154817045, guid: 468adec73621b9541a8c964145af749a, type: 3}
      propertyPath: m_LocalRotation.w
      value: 1
      objectReference: {fileID: 0}
    - target: {fileID: -8679921383154817045, guid: 468adec73621b9541a8c964145af749a, type: 3}
      propertyPath: m_LocalRotation.x
      value: 0
      objectReference: {fileID: 0}
    - target: {fileID: -8679921383154817045, guid: 468adec73621b9541a8c964145af749a, type: 3}
      propertyPath: m_LocalRotation.y
      value: 0
      objectReference: {fileID: 0}
    - target: {fileID: -8679921383154817045, guid: 468adec73621b9541a8c964145af749a, type: 3}
      propertyPath: m_LocalRotation.z
      value: 0
      objectReference: {fileID: 0}
    - target: {fileID: -8679921383154817045, guid: 468adec73621b9541a8c964145af749a, type: 3}
      propertyPath: m_LocalEulerAnglesHint.x
      value: 0
      objectReference: {fileID: 0}
    - target: {fileID: -8679921383154817045, guid: 468adec73621b9541a8c964145af749a, type: 3}
      propertyPath: m_LocalEulerAnglesHint.y
      value: 0
      objectReference: {fileID: 0}
    - target: {fileID: -8679921383154817045, guid: 468adec73621b9541a8c964145af749a, type: 3}
      propertyPath: m_LocalEulerAnglesHint.z
      value: 0
      objectReference: {fileID: 0}
    - target: {fileID: 919132149155446097, guid: 468adec73621b9541a8c964145af749a, type: 3}
      propertyPath: m_Name
      value: pin
      objectReference: {fileID: 0}
    m_RemovedComponents: []
    m_RemovedGameObjects: []
    m_AddedGameObjects: []
    m_AddedComponents:
    - targetCorrespondingSourceObject: {fileID: 919132149155446097, guid: 468adec73621b9541a8c964145af749a, type: 3}
      insertIndex: -1
      addedObject: {fileID: 3285658795868355883}
    - targetCorrespondingSourceObject: {fileID: 919132149155446097, guid: 468adec73621b9541a8c964145af749a, type: 3}
      insertIndex: -1
      addedObject: {fileID: 2553378475515654709}
  m_SourcePrefab: {fileID: 100100000, guid: 468adec73621b9541a8c964145af749a, type: 3}
--- !u!1 &5423910330203402226 stripped
GameObject:
  m_CorrespondingSourceObject: {fileID: 919132149155446097, guid: 468adec73621b9541a8c964145af749a, type: 3}
  m_PrefabInstance: {fileID: 5153508188747027107}
  m_PrefabAsset: {fileID: 0}
--- !u!64 &3285658795868355883
MeshCollider:
  m_ObjectHideFlags: 0
  m_CorrespondingSourceObject: {fileID: 0}
  m_PrefabInstance: {fileID: 0}
  m_PrefabAsset: {fileID: 0}
  m_GameObject: {fileID: 5423910330203402226}
  m_Material: {fileID: 0}
  m_IncludeLayers:
    serializedVersion: 2
    m_Bits: 0
  m_ExcludeLayers:
    serializedVersion: 2
    m_Bits: 0
  m_LayerOverridePriority: 0
  m_IsTrigger: 0
  m_ProvidesContacts: 0
  m_Enabled: 1
  serializedVersion: 5
  m_Convex: 0
  m_CookingOptions: 30
  m_Mesh: {fileID: 6849795856638667086, guid: 468adec73621b9541a8c964145af749a, type: 3}
--- !u!114 &2553378475515654709
MonoBehaviour:
  m_ObjectHideFlags: 0
  m_CorrespondingSourceObject: {fileID: 0}
  m_PrefabInstance: {fileID: 0}
  m_PrefabAsset: {fileID: 0}
  m_GameObject: {fileID: 5423910330203402226}
  m_Enabled: 1
  m_EditorHideFlags: 0
  m_Script: {fileID: 11500000, guid: e4f40a8603fd2994fa135b27061e419a, type: 3}
  m_Name: 
  m_EditorClassIdentifier: 
  attachments: []
